time,sand,loam1,loam2,clay
0,0.1,0.1,0.3,0.3
0.01001001001001,0.0480348527540377,0.1,0.3,0.3
0.02002002002002,0.0321612190104941,0.1,0.3,0.3
0.03003003003003,0.0258182150802985,0.1,0.3,0.3
0.04004004004004,0.0221752239915635,0.1,0.3,0.3
0.05005005005005,0.0197373044397524,0.1,0.3,0.3
0.0600600600600601,0.017959403384701,0.1,0.3,0.3
0.0700700700700701,0.0165890018470562,0.1,0.3,0.3
0.0800800800800801,0.0154909692178948,0.1,0.3,0.3
0.0900900900900901,0.0145855937482794,0.1,0.3,0.3
0.1001001001001,0.0138224141220858,0.1,0.3,0.3
0.11011011011011,0.013167724201759,0.1,0.292945694024171,0.3
0.12012012012012,0.0125980378806654,0.1,0.269953828236772,0.3
0.13013013013013,0.0120964215758289,0.1,0.251644608486779,0.3
0.14014014014014,0.0116503168204551,0.1,0.23661773937594,0.3
0.15015015015015,0.0112501865464478,0.1,0.223996779012705,0.3
0.16016016016016,0.010888640450197,0.1,0.213201416410115,0.3
0.17017017017017,0.0105598511517824,0.1,0.203830116049004,0.3
0.18018018018018,0.0102591533867044,0.1,0.195595018109281,0.3
0.19019019019019,0.00998276206636122,0.1,0.18828364931614,0.3
0.2002002002002,0.00972756967173485,0.1,0.181735301832647,0.3
0.21021021021021,0.00949099788003556,0.1,0.175825870763443,0.3
0.22022022022022,0.00927088706274329,0.1,0.170457788861505,0.3
0.23023023023023,0.00906541273683068,0.1,0.165553149738239,0.3
0.24024024024024,0.00887302152891329,0.1,0.161048890740833,0.3
0.25025025025025,0.00869238148549611,0.1,0.156893344019222,0.3
0.26026026026026,0.008522343079398,0.1,0.153043719034398,0.3
0.27027027027027,0.0083619082936083,0.1,0.149464233109228,0.3
0.28028028028028,0.00821020587680087,0.1,0.146124701673953,0.3
0.29029029029029,0.008066471365405,0.1,0.142999460323145,0.3
0.3003003003003,0.00793003082377262,0.1,0.140066530168148,0.3
0.31031031031031,0.00780028751138415,0.1,0.137306964142442,0.3
0.32032032032032,0.00767671087408538,0.1,0.134704329651769,0.3
0.33033033033033,0.00755882739528917,0.1,0.132244295186431,0.3
0.34034034034034,0.00744621294681438,0.1,0.129914297075055,0.3
0.35035035035035,0.0073384863572511,0.1,0.127703268642648,0.3
0.36036036036036,0.00723530397525588,0.1,0.125601418416443,0.3
0.37037037037037,0.00713635505085529,0.1,0.123600047216498,0.3
0.38038038038038,0.00704135779317102,0.1,0.121691396322901,0.3
0.39039039039039,0.00695005599052465,0.1,0.119868520666369,0.3
0.4004004004004,0.00686221610050447,0.1,0.118125182309962,0.3
0.41041041041041,0.00677762473466916,0.1,0.116455760493113,0.3
0.42042042042042,0.00669608647615851,0.1,0.114855175278068,0.3
0.43043043043043,0.00661742197936126,0.1,0.113318822432904,0.3
0.44044044044044,0.0065414663095466,0.1,0.111842517647704,0.3
0.45045045045045,0.00646806748745166,0.1,0.110422448543069,0.3
0.46046046046046,0.00639708520958101,0.1,0.109055133216385,0.3
0.47047047047047,0.00632838971968542,0.1,0.107737384298719,0.3
0.480480480480481,0.00626186081075636,0.1,0.106466277677,0.3
0.490490490490491,0.00619738694006444,0.1,0.105239125182347,0.3
0.500500500500501,0.00613486444241432,0.1,0.104053450663546,0.3
0.510510510510511,0.00607419682898844,0.1,0.102906968960756,0.3
0.520520520520521,0.00601529416098872,0.1,0.101797567372909,0.3
0.530530530530531,0.00595807248882549,0.1,0.100723289276671,0.3
0.540540540540541,0.00590245334889837,0.1,0.0996823196078431,0.3
0.550550550550551,0.00584836331110737,0.1,0.0986729719600264,0.3
0.560560560560561,0.00579573357115892,0.1,0.0976936770918664,0.3
0.570570570570571,0.00574449958251857,0.1,0.0967429726646562,0.3
0.580580580580581,0.00569460072353306,0.1,0.0958194940576069,0.299960671804746
0.590590590590591,0.00564597999581769,0.1,0.0949219661295457,0.294919601233174
0.600600600600601,0.00559858375049689,0.1,0.0940491958139032,0.290124433912542
0.610610610610611,0.00555236143930823,0.1,0.0932000654491788,0.285555806782949
0.620620620620621,0.00550726538794444,0.1,0.0923735267600831,0.281196426261535
0.630630630630631,0.0054632505893229,0.1,0.091568595415642,0.277030792283709
0.640640640640641,0.00542027451474449,0.1,0.0907843461000199,0.273044966027183
0.650650650650651,0.00537829694114076,0.1,0.0900199080399314,0.269226373375194
0.660660660660661,0.00533727979281413,0.1,0.0892744609394862,0.265563637796747
0.670670670670671,0.00529718699625578,0.1,0.088547231279318,0.262046437577977
0.680680680680681,0.00525798434678298,0.1,0.0878374889420354,0.258665383319396
0.690690690690691,0.00521963938587532,0.1,0.0871445441305268,0.255411912384725
0.700700700700701,0.00518212128820987,0.1,0.0864677445495503,0.252278197597048
0.710710710710711,0.00514540075750196,0.1,0.0858064728244301,0.249257067963939
0.720720720720721,0.00510944993035167,0.1,0.0851601441336421,0.246341939602398
0.730730730730731,0.00507424228737874,0.1,0.084528204034652,0.24352675534807
0.740740740740741,0.00503975257100204,0.1,0.0839101264646372,0.24080593178724
0.750750750750751,0.00500595670928418,0.1,0.0833054118997045,0.238174312656908
0.760760760760761,0.00497283174531954,0.1,0.0827135856579673,0.235627127727487
0.770770770770771,0.00494035577169508,0.1,0.0821341963333801,0.233159956421751
0.780780780780781,0.00490850786959883,0.1,0.0815668143485875,0.23076869553848
0.790790790790791,0.00487726805219138,0.1,0.0810110306162447,0.228449530544491
0.800800800800801,0.00484661721189224,0.1,0.0804664552993307,0.226198909977993
0.810810810810811,0.00481653707126508,0.1,0.0799327166619165,0.224013522572443
0.820820820820821,0.00478701013721503,0.1,0.0794094600026905,0.221890276765672
0.830830830830831,0.00475801965823739,0.1,0.0788963466642899,0.219826282305806
0.840840840840841,0.0047295495844802,0.1,0.0783930531121505,0.217818833705041
0.850850850850851,0.00470158453040455,0.1,0.0778992700771819,0.215865395325829
0.860860860860861,0.00467410973984513,0.1,0.0774147017571075,0.213963587912471
0.870870870870871,0.0046471110532909,0.1,0.0769390650717834,0.212111176405454
0.880880880880881,0.00462057487722099,0.1,0.0764720889682352,0.21030605889659
0.890890890890891,0.00459448815534493,0.1,0.0760135137715399,0.208546256600845
0.900900900900901,0.00456883834160921,0.1,0.0755630905780178,0.206829904736094
0.910910910910911,0.00454361337484313,0.1,0.0751205806875159,0.205155244215207
0.920920920920921,0.00451880165492772,0.1,0.0746857550718393,0.203520614066331
0.930930930930931,0.00449439202038075,0.1,0.0742583938766429,0.201924444507113
0.940940940940941,0.00447037372725939,0.1,0.0738382859543213,0.200365250607219
0.950950950950951,0.00444673642929001,0.1,0.0734252284256435,0.198841626480986
0.960960960960961,0.00442347015914165,0.1,0.0730190262680641,0.197352239958594
0.970970970970971,0.00440056531076608,0.099634397185153,0.0726194919288146,0.195895827689825
0.980980980980981,0.00437801262273347,0.0986264899076808,0.0722264449610297,0.194471190639537
0.990990990990991,0.00435580316249809,0.0976485646747237,0.071839711681307,0.193077189938322
1.001001001001,0.00433392831153305,0.0966991639170351,0.0714591248472214,0.191712743055741
1.01101101101101,0.00431237975127823,0.095776927377634,0.0710845233534373,0.19037682026689
1.02102102102102,0.00429114944984913,0.0948805839148885,0.0707157519451615,0.189068441386106
1.03103103103103,0.00427022964945849,0.09400894413399,0.0703526609477816,0.187786672744253
1.04104104104104,0.00424961285450597,0.093160893749664,0.0699951060116186,0.186530624388428
1.05105105105105,0.00422929182029432,0.0923353875958737,0.0696429478708062,0.185299447484972
1.06106106106106,0.00420925954233344,0.0915314442092809,0.0692960521153824,0.184092331908599
1.07107107107107,0.00418950924619654,0.0907481409226275,0.0689542889757445,0.182908504002059
1.08108108108108,0.004170034377895,0.0899846094122574,0.0686175331186851,0.18174722449227
1.09109109109109,0.00415082859474084,0.0892400316509273,0.068285663454278,0.18060778655017
1.1011011011011,0.00413188575666792,0.088513636223013,0.0679585629529414,0.17948951398271
1.11111111111111,0.00411319991798489,0.0878046949643785,0.0676361184720477,0.178391759546482
1.12112112112112,0.00409476531953471,0.0871125198936315,0.0673182205914994,0.177313903373444
1.13113113113113,0.00407657638123727,0.086436460405367,0.0670047634577253,0.176255351500017
1.14114114114114,0.00405862769499326,0.0857759006993694,0.0666956446355954,0.175215534491645
1.15115115115115,0.00404091401792856,0.0851302574226812,0.0663907649677804,0.174193906155572
1.16116116116116,0.0040234302659604,0.0844989775040186,0.0660900284411207,0.173189942335235
1.17117117117117,0.00400617150766686,0.0838815361622596,0.0657933420595928,0.172203139780211
1.18118118118118,0.00398913295844335,0.0832774350727083,0.0655006157234942,0.171233015086207
1.19119119119119,0.00397230997493011,0.0826862006765706,0.0652117621144883,0.170279103699998
1.2012012012012,0.00395569804969606,0.0821073826206099,0.0649266965861772,0.169340958984679
1.21121121121121,0.00393929280616516,0.0815405523152982,0.0646453370598912,0.168418151340945
1.22122122122122,0.00392308999377237,0.0809853016009725,0.0643676039254023,0.167510267380481
1.23123123123123,0.00390708548333694,0.0804412415125636,0.0640934199462911,0.166616909147848
1.24124124124124,0.00389127526264169,0.0799080011344025,0.0638227101697099,0.165737693387527
1.25125125125125,0.00387565543220745,0.0793852265374428,0.0635554018403027,0.164872250853077
1.26126126126126,0.00386022220125263,0.0788725797919802,0.0632914243180593,0.164020225655558
1.27127127127127,0.00384497188382836,0.0783697380496107,0.0630307089998908,0.163181274648612
1.28128128128128,0.00382990089512027,0.0778763926887636,0.0627731892447296,0.162355066847804
1.29129129129129,0.00381500574790847,0.0773922485186668,0.0625188003019689,0.161541282881966
1.3013013013013,0.00380028304917785,0.0769170230370849,0.0622674792430663,0.1607396144745
1.31131131131131,0.00378572949687116,0.0764504457375846,0.0620191648961478,0.159949763952717
1.32132132132132,0.00377134187677777,0.0759922574624723,0.0617737977834574,0.159171443783438
1.33133133133133,0.00375711705955163,0.0755422097978852,0.0615313200615084,0.158404376133215
1.34134134134134,0.00374305199785192,0.0751000645078293,0.0612916754637982,0.157648292451641
1.35135135135135,0.00372914372360065,0.074665593004235,0.0610548092459578,0.156902933076336
1.36136136136136,0.00371538934535147,0.074238575850352,0.0608206681332167,0.156168046858279
1.37137137137137,0.0037017860457645,0.0738188022950336,0.0605892002700652,0.155443390806268
1.38138138138138,0.00368833107918209,0.0734060698356636,0.0603603551720099,0.154728729749361
1.39139139139139,0.00367502176930081,0.0730001838076689,0.0601340836793173,0.154023836016228
1.4014014014014,0.00366185550693523,0.0726009569987257,0.0599103379126509,0.15332848913044
1.41141141141141,0.0036488297478691,0.072208209285924,0.0596890712305117,0.152642475520736
1.42142142142142,0.00363594201079012,0.0718217672942924,0.0594702381883931,0.15196558824544
1.43143143143143,0.00362318987530438,0.0714414640752131,0.0592537944995729,0.15129762673019
1.44144144144144,0.00361057098002675,0.0710671388033717,0.0590396969974629,0.150638396518251
1.45145145145145,0.0035980830207441,0.0706986364909935,0.0588279035994437,0.149987709032675
1.46146146146146,0.00358572374864777,0.0703358077182113,0.0586183732721173,0.149345381349682
1.47147147147147,0.00357349096863249,0.0699785083785013,0.0584110659979114,0.148711235982615
1.48148148148148,0.00356138253765858,0.0696265994382005,0.0582059427429727,0.148085100675905
1.49149149149149,0.00354939636317492,0.0692799467091942,0.0580029654262935,0.147466808208503
1.5015015015015,0.00353753040159981,0.0689384206339315,0.0578020968900129,0.146856196206253
1.51151151151151,0.00352578265685736,0.0686018960819832,0.0576033008708421,0.146253106962756
1.52152152152152,0.003514151178967,0.0682702521574198,0.057406541972564,0.14565738726825
1.53153153153153,0.00350263406268385,0.0679433720163346,0.0572117856395577,0.145068888246099
1.54154154154154,0.00349122944618776,0.0676211426938857,0.057018998131306,0.144487465196491
1.55155155155155,0.00347993550981897,0.0673034549402775,0.0568281464978398,0.14391297744697
1.56156156156156,0.00346875047485861,0.0669902030651392,0.0566391985560823,0.143345288209456
1.57157157157157,0.00345767260235185,0.0666812847897971,0.0564521228670513,0.14278426444342
1.58158158158158,0.00344670019197226,0.0663766011069728,0.0562668887138851,0.142229776724904
1.59159159159159,0.00343583158092555,0.066076056147469,0.0560834660806564,0.141681699121092
1.6016016016016,0.00342506514289104,0.0657795570534357,0.0559018256319403,0.141139909070156
1.61161161161161,0.00341439928699943,0.0654870138578366,0.0557219386931065,0.140604287266124
1.62162162162162,0.00340383245684538,0.0651983393697605,0.0555437772313039,0.140074717548511
1.63163163163163,0.00339336312953349,0.0649134490652442,0.05536731383711,0.139551086796491
1.64164164164164,0.00338298981475631,0.0646322609832995,0.0551925217068176,0.139033284827388
1.65165165165165,0.00337271105390324,0.0643546956268501,0.0550193746253328,0.138521204299284
1.66166166166166,0.00336252541919901,0.0640806758683097,0.0548478469496592,0.138014740617535
1.67167167167167,0.00335243151287056,0.0638101268595447,0.0546779135929456,0.13751379184503
1.68168168168168,0.00334242796634135,0.0635429759459838,0.0545095500090731,0.137018258615997
1.69169169169169,0.00333251343945188,0.0632791525846499,0.0543427321777618,0.136528044053209
1.7017017017017,0.00332268661970553,0.0630185882659057,0.0541774365901758,0.136043053688425
1.71171171171171,0.00331294622153873,0.0627612164387134,0.0540136402350065,0.13556319538591
1.72172172172172,0.00330329098561453,0.0625069724392267,0.0538513205850161,0.135088379268909
1.73173173173173,0.00329371967813862,0.0622557934225375,0.0536904555840236,0.134618517648935
1.74174174174174,0.00328423109019712,0.0620076182974171,0.0535310236343155,0.134153524957739
1.75175175175175,0.00327482403711515,0.0617623876638954,0.0533730035844654,0.133693317681846
1.76176176176176,0.00326549735783559,0.0615200437535347,0.0532163747175469,0.133237814299553
1.77177177177177,0.00325624991431708,0.0612805303722613,0.0530611167397247,0.132786935220264
1.78178178178178,0.00324708059095075,0.0610437928456268,0.0529072097692097,0.132340602726069
1.79179179179179,0.00323798829399488,0.060809777966377,0.0527546343255646,0.131898740915477
1.8018018018018,0.00322897195102689,0.0605784339442156,0.0526033713193465,0.131461275649186
1.81181181181181,0.00322003051041204,0.0603497103576545,0.0524534020420746,0.131028134497835
1.82182182182182,0.00321116294078815,0.0601235581078478,0.0523047081565108,0.130599246691628
1.83183183183183,0.00320236823056593,0.0598999293743163,0.0521572716872413,0.130174543071762
1.84184184184184,0.00319364538744428,0.0596787775724688,0.052011075011549,0.129753956043579
1.85185185185185,0.00318499343793992,0.0594600573128364,0.0518661008505655,0.12933741953138
1.86186186186186,0.00317641142693112,0.0592437243619386,0.0517223322606929,0.128924868934813
1.87187187187187,0.00316789841721477,0.0590297356047038,0.0515797526252859,0.128516241086794
1.88188188188188,0.00315945348907649,0.0588180490083724,0.0514383456465847,0.128111474212873
1.89189189189189,0.00315107573987324,0.0586086235878142,0.0512980953378895,0.127710507892011
1.9019019019019,0.00314276428362807,0.0584014193721933,0.0511589860159691,0.12731328301869
1.91191191191191,0.00313451825063659,0.0581963973729218,0.0510210022936939,0.126919741766316
1.92192192192192,0.00312633678708467,0.0579935195528417,0.0508841290728872,0.126529827551858
1.93193193193193,0.00311821905467711,0.0577927487965799,0.0507483515373856,0.126143485001674
1.94194194194194,0.00311016423027685,0.0575940488820253,0.0506136551463024,0.125760659918476
1.95195195195195,0.00310217150555439,0.0573973844528767,0.0504800256274862,0.125381299249398
1.96196196196196,0.00309424008664703,0.0572027209922154,0.0503474489711695,0.125005351055108
1.97197197197197,0.00308636919382772,0.0570100247970559,0.0502159114237984,0.124632764479937
1.98198198198198,0.00307855806118301,0.0568192629538349,0.05008539948204,0.124263489722988
1.99199199199199,0.00307080593630008,0.0566304033147954,0.0499558998869594,0.123897478010166
2.002002002002,0.00306311207996221,0.0564434144752288,0.0498273996183616,0.123534681567124
2.01201201201201,0.00305547576585279,0.0562582657515383,0.0496998858892933,0.123175053593067
2.02202202202202,0.00304789628026727,0.0560749271600889,0.0495733461406978,0.122818548235393
2.03203203203203,0.00304037292183298,0.0558933693968098,0.0494477680362195,0.122465120565134
2.04204204204204,0.0030329050012365,0.0557135638175201,0.049323139457152,0.122114726553173
2.05205205205205,0.00302549184095843,0.0555354824189444,0.0491994484975259,0.121767323047204
2.06206206206206,0.00301813277501516,0.0553590978203935,0.0490766834593312,0.12142286774941
2.07207207207207,0.00301082714870757,0.0551843832460796,0.0489548328478704,0.121081319194828
2.08208208208208,0.00300357431837637,0.0550113125080423,0.0488338853672375,0.120742636730384
2.09209209209209,0.00299637365116392,0.0548398599896603,0.0487138299159199,0.12040678049457
2.1021021021021,0.00298922452478228,0.0546700006297239,0.0485946555825179,0.120073711397732
2.11211211211211,0.00298212632728729,0.0545017099070479,0.0484763516415794,0.119743391102965
2.12212212212212,0.0029750784568586,0.0543349638256014,0.0483589075495455,0.119415782007574
2.13213213213213,0.00296808032158531,0.0541697389001356,0.0482423129408034,0.119090847225095
2.14214214214214,0.00296113133925717,0.0540060121422893,0.0481265576238434,0.118768550567851
2.15215215215215,0.00295423093716114,0.0538437610471536,0.0480116315775177,0.118448856530021
2.16216216216216,0.00294737855188313,0.0536829635802778,0.0478975249473956,0.118131730271212
2.17217217217217,0.00294057362911476,0.0535235981650997,0.047784228042215,0.117817137600509
2.18218218218218,0.00293381562346504,0.0533656436707842,0.0476717313304248,0.117505044960991
2.19219219219219,0.00292710399827673,0.0532090794004539,0.0475600254368164,0.117195419414697
2.2022022022022,0.00292043822544739,0.0530538850797977,0.0474491011392426,0.116888228628022
2.21221221221221,0.0029138177852548,0.0529000408460425,0.0473389493654194,0.116583440857536
2.22222222222222,0.00290724216618678,0.0527475272372749,0.0472295611898088,0.116281024936207
2.23223223223223,0.00290071086477516,0.0525963251820996,0.047120927830582,0.115980950260009
2.24224224224224,0.00289422338543392,0.0524464159896214,0.0470130406466572,0.115683186774918
2.25225225225225,0.00288777924030115,0.0522977813397407,0.0469058911348129,0.115387704964267
2.26226226226226,0.00288137794908506,0.0521504032737484,0.046799470926873,0.115094475836455
2.27227227227227,0.00287501903891352,0.0520042641852123,0.0466937717869615,0.114803470912999
2.28228228228228,0.00286870204418743,0.0518593468111413,0.0465887856088254,0.114514662216917
2.29229229229229,0.00286242650643744,0.0517156342234199,0.0464845044132234,0.114228022261431
2.3023023023023,0.00285619197418424,0.0515731098205023,0.046380920345379,0.113943524038974
2.31231231231231,0.00284999800280214,0.0514317573193565,0.0462780256724948,0.11366114101051
2.32232232232232,0.00284384415438582,0.0512915607476504,0.046175812781328,0.113380847095128
2.33233233233233,0.00283772999762038,0.0511525044361705,0.0460742741758248,0.113102616659925
2.34234234234234,0.00283165510765428,0.051014573011466,0.0459734024748106,0.112826424510163
2.35235235235235,0.00282561906597541,0.0508777513887093,0.0458731904097368,0.112552245879683
2.36236236236236,0.00281962146028992,0.0507420247647666,0.0457736308224804,0.11228005642158
2.37237237237237,0.00281366188440401,0.0506073786114703,0.0456747166631971,0.112009832199118
2.38238238238238,0.0028077399381083,0.050473798669087,0.0455764409882238,0.111741549676889
2.39239239239239,0.00280185522706501,0.0503412709399741,0.0454787969580314,0.111475185712206
2.4024024024024,0.00279600736269763,0.0502097816824185,0.045381777835226,0.111210717546715
2.41241241241241,0.00279019596208316,0.0500793174046518,0.0452853769825953,0.110948122798226
2.42242242242242,0.00278442064784678,0.0499498648590352,0.0451895878612024,0.110687379452763
2.43243243243243,0.00277868104805895,0.0498214110364092,0.0450944040285223,0.110428465856802
2.44244244244244,0.00277297679613477,0.0496939431606023,0.0449998191366217,0.110171360709729
2.45245245245245,0.00276730753073565,0.0495674486830932,0.0449058269303813,0.109916043056471
2.46246246246246,0.00276167289567319,0.0494419152778223,0.0448124212457581,0.109662492280326
2.47247247247247,0.00275607253981515,0.049317330836146,0.0447195960080873,0.109410688095971
2.48248248248248,0.00275050611699355,0.0491936834619315,0.0446273452304231,0.109160610542641
2.49249249249249,0.00274497328591482,0.0490709614667849,0.0445356630119169,0.10891223997749
2.5025025025025,0.00273947371007189,0.0489491533654104,0.0444445435362315,0.1086655570691
2.51251251251251,0.00273400705765821,0.0488282478710954,0.0443539810699918,0.108420542791173
2.52252252252252,0.00272857300148369,0.0487082338913177,0.0442639699612692,0.108177178416358
2.53253253253253,0.00272317121889246,0.0485891005234705,0.0441745046380999,0.107935445510242
2.54254254254254,0.00271780139168234,0.0484708370507026,0.0440855796070367,0.107695325925486
2.55255255255255,0.00271246320602619,0.0483534329378687,0.0439971894517315,0.107456801796101
2.56256256256256,0.00270715635239479,0.0482368778275876,0.0439093288315502,0.107219855531863
2.57257257257257,0.00270188052548155,0.0481211615364041,0.0438219924802171,0.10698446981287
2.58258258258258,0.00269663542412863,0.0480062740510519,0.0437351752044887,0.106750627584217
2.59259259259259,0.00269142075125483,0.0478922055248138,0.0436488718828576,0.10651831205081
2.6026026026026,0.00268623621378484,0.0477789462739774,0.0435630774642823,0.106287506672301
2.61261261261261,0.0026810815225801,0.0476664867743815,0.0434777869669467,0.106058195158136
2.62262262262262,0.00267595639237108,0.0475548176580525,0.0433929954770439,0.10583036146273
2.63263263263263,0.00267086054169091,0.047443929709926,0.0433086981475883,0.105603989780749
2.64264264264264,0.00266579369281052,0.0473338138646536,0.0432248901972507,0.105379064542506
2.65265265265265,0.00266075557167503,0.0472244612034891,0.0431415669092202,0.105155570409462
2.66266266266266,0.00265574590784149,0.0471158629512548,0.0430587236300886,0.104933492269834
2.67267267267267,0.0026507644344179,0.0470080104733837,0.0429763557687588,0.104712815234299
2.68268268268268,0.00264581088800353,0.0469008952730356,0.0428944587953765,0.104493524631806
2.69269269269269,0.00264088500863036,0.0467945089882857,0.0428130282402836,0.104275606005478
2.7027027027027,0.00263598653970581,0.0466888433893826,0.0427320596929936,0.104059045108608
2.71271271271271,0.0026311152279566,0.0465838903760741,0.0426515488011881,0.103843827900743
2.72272272272272,0.00262627082337373,0.0464796419749995,0.0425714912697347,0.103629940543871
2.73273273273273,0.00262145307915861,0.0463760903371447,0.0424918828597238,0.103417369398671
2.74274274274274,0.00261666175167022,0.0462732277353602,0.0424127193875266,0.10320610102087
2.75275275275275,0.00261189660037339,0.0461710465619392,0.042333996723871,0.102996122157667
2.76276276276276,0.00260715738778806,0.0460695393262542,0.0422557107929375,0.10278741974424
2.77277277277277,0.00260244387943956,0.0459686986524507,0.0421778575714725,0.102579980900334
2.78278278278278,0.00259775584380991,0.0458685172771958,0.04210043308792,0.102373792926922
2.79279279279279,0.00259309305229006,0.0457689880474806,0.0420234334215704,0.10216884330294
2.8028028028028,0.00258845527913304,0.0456701039184756,0.041946854701727,0.101965119682091
2.81281281281281,0.00258384230140805,0.0455718579514356,0.0418706931068883,0.101762609889723
2.82282282282282,0.00257925389895549,0.0454742433116552,0.0417949448639475,0.101561301919772
2.83283283283283,0.0025746898543428,0.045377253266471,0.0417196062474068,0.101361183931774
2.84284284284284,0.00257014995282118,0.0452808811833118,0.0416446735786082,0.101162244247939
2.85285285285285,0.00256563398228315,0.0451851205277931,0.041570143224979,0.100964471350286
2.86286286286286,0.00256114173322096,0.0450899648618561,0.041496011599292,0.100767853877848
2.87287287287287,0.00255667299868571,0.0449954078419503,0.0414222751589404,0.100572380623924
2.88288288288288,0.00255222757424736,0.0449014432172562,0.0413489304052268,0.100378040533402
2.89289289289289,0.0025478052579554,0.0448080648279506,0.0412759738826658,0.100184822700128
2.9029029029029,0.00254340585030036,0.0447152666035102,0.0412034021783003,0.0999927163643399
2.91291291291291,0.00253902915417598,0.0446230425610536,0.0411312119210309,0.0998017109101469
2.92292292292292,0.00253467497484214,0.0445313868037217,0.0410593997809581,0.0996117958630675
2.93293293293293,0.00253034311988842,0.0444402935190938,0.0409879624687372,0.0994229608876165
2.94294294294294,0.00252603339919844,0.0443497569776394,0.0409168967349454,0.0992351957849424
2.95295295295295,0.0025217456249148,0.0442597715312041,0.0408461993694614,0.0990484904905137
2.96296296296296,0.00251747961140466,0.0441703316115306,0.0407758672008555,0.0988628350718533
2.97297297297297,0.00251323517522601,0.0440814317288104,0.040705897095793,0.0986782197263187
2.98298298298298,0.00250901213509455,0.0439930664702691,0.0406362859584473,0.0984946347789282
2.99299299299299,0.00250481031185113,0.0439052304987818,0.0405670307299247,0.0983120706802315
3.003003003003,0.00250062952842984,0.0438179185515196,0.0404981283876999,0.0981305180042232
3.01301301301301,0.00249646960982671,0.0437311254386246,0.0404295759450619,0.0979499674462982
3.02302302302302,0.00249233038306888,0.0436448460419143,0.0403613704505704,0.0977704098212496
3.03303303303303,0.00248821167718442,0.0435590753136144,0.0402935089875216,0.0975918360613055
3.04304304304304,0.00248411332317269,0.0434738082751176,0.0402259886734248,0.0974142372142056
3.05305305305305,0.00248003515397517,0.0433890400157704,0.0401588066594881,0.0972376044413164
3.06306306306306,0.00247597700444689,0.0433047656916849,0.0400919601301133,0.0970619290157834
3.07307307307307,0.00247193871132833,0.0432209805245764,0.0400254463024004,0.0968872023207204
3.08308308308308,0.00246792011321782,0.0431376798006251,0.0399592624256609,0.0967134158474338
3.09309309309309,0.00246392105054448,0.0430548588693628,0.0398934057809404,0.0965405611936828
3.1031031031031,0.00245994136554158,0.0429725131425818,0.0398278736805489,0.0963686300619727
3.11311311311311,0.0024559809022204,0.0428906380932677,0.0397626634676005,0.0961976142578822
3.12312312312312,0.00245203950634456,0.0428092292545538,0.0396977725155606,0.0960275056884229
3.13313313313313,0.00244811702540477,0.0427282822186976,0.039633198227802,0.0958582963604307
3.14314314314314,0.00244421330859408,0.0426477926360785,0.039568938037168,0.0956899783789882
3.15315315315315,0.0024403282067835,0.042567756214216,0.0395049894055443,0.0955225439458777
3.16316316316316,0.00243646157249807,0.0424881687168083,0.0394413498234372,0.0953559853580635
3.17317317317317,0.00243261325989336,0.0424090259627903,0.0393780168095609,0.0951902950062036
3.18318318318318,0.00242878312473237,0.0423303238254113,0.0393149879104303,0.0950254653731893
3.19319319319319,0.00242497102436279,0.0422520582313311,0.0392522606999622,0.0948614890327129
3.2032032032032,0.00242117681769474,0.0421742251597343,0.0391898327790831,0.0946983586478627
3.21321321321321,0.00241740036517878,0.0420968206414629,0.0391277017753437,0.0945360669697433
3.22322322322322,0.00241364152878439,0.0420198407581662,0.0390658653425403,0.0943746068361237
3.23323323323323,0.00240990017197877,0.0419432816414675,0.0390043211603425,0.0942139711701091
3.24324324324324,0.002406176159706,0.0418671394721475,0.0389430669339277,0.0940541529788379
3.25325325325325,0.00240246935836657,0.0417914104793445,0.0388821003936217,0.0938951453522036
3.26326326326326,0.00239877963579726,0.0417160909397695,0.0388214192945452,0.0937369414615997
3.27327327327327,0.00239510686125133,0.0416411771769378,0.0387610214162671,0.0935795345586878
3.28328328328328,0.00239145090537908,0.0415666655604147,0.0387009045624626,0.0934229179741888
3.29329329329329,0.00238781164020869,0.041492552505077,0.0386410665605784,0.0932670851166959
3.3033033033033,0.00238418893912745,0.0414188344703884,0.0385815052615025,0.0931120294715095
3.31331331331331,0.00238058267686318,0.0413455079596888,0.0385222185392401,0.092957744599493
3.32332332332332,0.00237699272946613,0.0412725695194981,0.0384632042905951,0.0928042241359503
3.33333333333333,0.00237341897429103,0.0412000157388326,0.0384044604348561,0.0926514617895224
3.34334334334334,0.00236986128997948,0.0411278432485353,0.0383459849134893,0.0924994513411045
3.35335335335335,0.0023663195564427,0.0410560487206186,0.0382877756898343,0.0923481866427831
3.36336336336336,0.00236279365484444,0.0409846288676199,0.0382298307488073,0.0921976616167912
3.37337337337337,0.00235928346758426,0.0409135804419693,0.0381721480966072,0.0920478702544827
3.38338338338338,0.00235578887828109,0.0408429002353692,0.0381147257604281,0.0918988066153248
3.39339339339339,0.00235230977175695,0.0407725850781859,0.0380575617881755,0.0917504648259091
3.4034034034034,0.00234884603402106,0.0407026318388528,0.0380006542481877,0.0916028390789789
3.41341341341341,0.00234539755225414,0.0406330374232841,0.0379440012289618,0.0914559236324745
3.42342342342342,0.00234196421479298,0.0405637987743004,0.0378876008388837,0.0913097128085953
3.43343343343343,0.00233854591111523,0.0404949128710646,0.0378314512059631,0.0911642009928782
3.44344344344344,0.00233514253182448,0.0404263767285281,0.0377755504775724,0.0910193826332917
3.45345345345345,0.00233175396863557,0.0403581873968878,0.0377198968201901,0.0908752522393465
3.46346346346346,0.00232838011436007,0.0402903419610524,0.037664488419148,0.0907318043812212
3.47347347347347,0.00232502086289209,0.0402228375401197,0.0376093234783827,0.0905890336889027
3.48348348348348,0.00232167610919422,0.0401556712868618,0.0375544002201912,0.0904469348513424
3.49349349349349,0.00231834574928378,0.0400888403872217,0.0374997168849903,0.0903055026156261
3.5035035035035,0.00231502968021921,0.0400223420598175,0.0374452717310799,0.0901647317861584
3.51351351351351,0.0023117278000867,0.0399561735554562,0.0373910630344094,0.090024617223861
3.52352352352352,0.00230844000798708,0.0398903321566566,0.0373370890883494,0.0898851538453849
3.53353353353353,0.00230516620402281,0.0398248151771804,0.0372833482034652,0.0897463366223355
3.54354354354354,0.00230190628928529,0.0397596199615719,0.037229838707295,0.0896081605805116
3.55355355355355,0.00229866016584226,0.0396947438847059,0.0371765589441315,0.0894706207991562
3.56356356356356,0.00229542773672547,0.0396301843513437,0.0371235072748061,0.0893337124102209
3.57357357357357,0.0022922089059185,0.0395659387956972,0.0370706820764779,0.0891974305976418
3.58358358358358,0.0022890035783448,0.0395020046810006,0.0370180817424246,0.0890617705966284
3.59359359359359,0.00228581165985587,0.0394383794990893,0.0369657046818374,0.0889267276929637
3.6036036036036,0.00228263305721966,0.0393750607699873,0.0369135493196191,0.0887922972223159
3.61361361361361,0.00227946767810914,0.0393120460415006,0.0368616140961848,0.0886584745695622
3.62362362362362,0.00227631543109102,0.0392493328888187,0.0368098974672665,0.0885252551681228
3.63363363363363,0.00227317622561466,0.0391869189141222,0.0367583979037196,0.0883926344993069
3.64364364364364,0.00227004997200116,0.0391248017461984,0.0367071138913338,0.0882606080916686
3.65365365365365,0.00226693658143256,0.0390629790400625,0.0366560439306454,0.0881291715203737
3.66366366366366,0.0022638359659413,0.0390014484765859,0.0366051865367535,0.0879983204065771
3.67367367367367,0.00226074803839974,0.0389402077621306,0.0365545402391386,0.0878680504168099
3.68368368368368,0.00225767271250988,0.0388792546281904,0.036504103581484,0.0877383572623764
3.69369369369369,0.00225460990279325,0.0388185868310378,0.0364538751214999,0.0876092366987614
3.7037037037037,0.0022515595245809,0.0387582021513771,0.0364038534307503,0.0874806845250469
3.71371371371371,0.0022485214940036,0.0386980983940035,0.0363540370944821,0.0873526965833375
3.72372372372372,0.00224549572798216,0.0386382733874677,0.0363044247114574,0.0872252687581958
3.73373373373373,0.00224248214421783,0.0385787249837466,0.0362550148937876,0.0870983969760869
3.74374374374374,0.00223948066118297,0.0385194510579194,0.0362058062667706,0.0869720772048311
3.75375375375375,0.00223649119811174,0.038460449507849,0.0361567974687302,0.0868463054530656
3.76376376376376,0.00223351367499099,0.0384017182538686,0.0361079871508573,0.0867210777697151
3.77377377377377,0.00223054801255127,0.0383432552384745,0.0360593739770547,0.0865963902434704
3.78378378378378,0.00222759413225794,0.0382850584260227,0.0360109566237831,0.0864722390022749
3.79379379379379,0.00222465195630247,0.0382271258024316,0.0359627337799098,0.0863486202128203
3.8038038038038,0.0022217214075938,0.0381694553748891,0.0359147041465596,0.0862255300800487
3.81381381381381,0.00221880240974989,0.0381120451715645,0.0358668664369678,0.0861029648466638
3.82382382382382,0.00221589488708932,0.0380548932413257,0.0358192193763355,0.085980920792649
3.83383383383383,0.00221299876462307,0.0379979976534605,0.0357717617016869,0.0858593942347932
3.84384384384384,0.00221011396804641,0.0379413564974023,0.0357244921617287,0.0857383815262237
3.85385385385385,0.00220724042373085,0.0378849678824614,0.0356774095167113,0.085617879055947
3.86386386386386,0.0022043780587163,0.0378288299375592,0.0356305125382927,0.0854978832483959
3.87387387387387,0.00220152680070326,0.0377729408109679,0.0355838000094034,0.0853783905629839
3.88388388388388,0.00219868657804513,0.0377172986700537,0.0355372707241141,0.0852593974936665
3.89389389389389,0.00219585731974069,0.0376619017010244,0.0354909234875048,0.0851409005685093
3.9039039039039,0.00219303895542663,0.0376067481086813,0.0354447571155358,0.0850228963492622
3.91391391391391,0.00219023141537019,0.0375518361161746,0.035398770434921,0.0849053814309403
3.92392392392392,0.00218743463046193,0.0374971639647631,0.0353529622830021,0.084788352441412
3.93393393393393,0.00218464853220855,0.0374427299135776,0.0353073315076259,0.0846718060409914
3.94394394394394,0.0021818730527259,0.0373885322393881,0.0352618769670217,0.0845557389220392
3.95395395395395,0.00217910812473198,0.0373345692363745,0.0352165975296822,0.0844401478085676
3.96396396396396,0.00217635368154014,0.0372808392159013,0.0351714920742444,0.0843250294558522
3.97397397397397,0.00217360965705226,0.0372273405062956,0.0351265594893735,0.0842103806500494
3.98398398398398,0.00217087598575216,0.0371740714526286,0.0350817986736477,0.0840961982078198
3.99399399399399,0.00216815260269896,0.0371210304165007,0.0350372085354448,0.0839824789759567
4.004004004004,0.00216543944352067,0.0370682157758295,0.0349927879928304,0.0838692198310202
4.01401401401401,0.00216273644440775,0.0370156259246421,0.0349485359734476,0.0837564176789775
4.02402402402402,0.00216004354210682,0.0369632592728694,0.0349044514144083,0.0836440694548472
4.03403403403403,0.00215736067391443,0.0369111142461443,0.0348605332621862,0.0835321721223499
4.04404404404404,0.00215468777767098,0.0368591892856031,0.0348167804725105,0.0834207226735635
4.05405405405405,0.0021520247917546,0.0368074828476896,0.0347731920102621,0.0833097181285835
4.06406406406406,0.00214937165507522,0.0367559934039625,0.0347297668493707,0.0831991555351883
4.07407407407407,0.0021467283070687,0.0367047194409054,0.034686503972713,0.0830890319685099
4.08408408408408,0.002144094687691,0.0366536594597402,0.0346434023720131,0.0829793445307082
4.09409409409409,0.00214147073741243,0.0366028119762429,0.0346004610477434,0.0828700903506511
4.1041041041041,0.00213885639721204,0.0365521755205627,0.0345576790090276,0.0827612665835991
4.11411411411411,0.00213625160857205,0.036501748637043,0.0345150552735443,0.0826528704108935
4.12412412412412,0.00213365631347228,0.0364515298840462,0.0344725888674327,0.0825448990396506
4.13413413413413,0.0021310704543848,0.0364015178337803,0.0344302788251987,0.0824373497024587
4.14414414414414,0.00212849397426854,0.0363517110721284,0.034388124189623,0.0823302196570807
4.15415415415415,0.00212592681656401,0.0363021081984808,0.03434612401167,0.0822235061861601
4.16416416416416,0.00212336892518805,0.0362527078255696,0.0343042773503982,0.0821172065969319
4.17417417417417,0.00212082024452877,0.0362035085793059,0.0342625832728715,0.0820113182209367
4.18418418418418,0.00211828071944037,0.0361545090986188,0.034221040854072,0.0819058384137397
4.19419419419419,0.0021157502952382,0.0361057080352978,0.0341796491768136,0.0818007645546533
4.2042042042042,0.00211322891769379,0.0360571040538366,0.0341384073316571,0.0816960940464634
4.21421421421421,0.00211071653302998,0.0360086958312797,0.0340973144168263,0.0815918243151601
4.22422422422422,0.00210821308791606,0.0359604820570713,0.0340563695381252,0.0814879528096715
4.23423423423423,0.00210571852946309,0.0359124614329063,0.034015571808856,0.0813844770016019
4.24424424424424,0.00210323280521912,0.0358646326725829,0.0339749203497389,0.0812813943849727
4.25425425425425,0.00210075586316465,0.0358169945018588,0.0339344142888319,0.0811787024759684
4.26426426426426,0.00209828765170796,0.0357695456583079,0.033894052761453,0.0810763988126843
4.27427427427427,0.0020958281196807,0.03572228489118,0.0338538349101021,0.0809744809548794
4.28428428428428,0.00209337721633333,0.0356752109612625,0.0338137598843846,0.0808729464837314
4.29429429429429,0.00209093489133081,0.0356283226407437,0.033773826840936,0.0807717930015957
4.3043043043043,0.00208850109474822,0.0355816187130785,0.0337340349433473,0.0806710181317677
4.31431431431432,0.00208607577706644,0.0355350979728555,0.0336943833620915,0.0805706195182483
4.32432432432433,0.002083658889168,0.0354887592256668,0.0336548712744508,0.0804705948255123
4.33433433433434,0.00208125038233282,0.0354426012879786,0.0336154978644449,0.0803709417382805
4.34434434434435,0.00207885020823413,0.0353966229870048,0.0335762623227604,0.0802716579612945
4.35435435435436,0.00207645831893441,0.0353508231605817,0.0335371638466809,0.0801727412190945
4.36436436436437,0.00207407466688132,0.0353052006570444,0.0334982016400178,0.0800741892558004
4.37437437437438,0.00207169920490377,0.0352597543351051,0.0334593749130426,0.079975999834896
4.38438438438439,0.00206933188620797,0.0352144830637338,0.0334206828824192,0.0798781707390151
4.3943943943944,0.00206697266437358,0.0351693857220395,0.0333821247711379,0.079780699769732
4.40440440440441,0.0020646214933499,0.0351244611991537,0.0333436998084496,0.0796835847473536
4.41441441441442,0.00206227832745205,0.0350797083941156,0.0333054072298015,0.0795868235107144
4.42442442442443,0.00205994312135728,0.0350351262157588,0.0332672462767724,0.079490413916975
4.43443443443444,0.00205761583010127,0.0349907135825996,0.0332292161970107,0.0793943538414228
4.44444444444445,0.00205529640907449,0.0349464694227266,0.0331913162441711,0.0792986411772748
4.45445445445446,0.00205298481401863,0.0349023926736921,0.0331535456778537,0.0792032738354839
4.46446446446447,0.00205068100102305,0.0348584822824051,0.0331159037635431,0.0791082497445475
4.47447447447448,0.00204838492652124,0.0348147372050256,0.0330783897725482,0.0790135668503183
4.48448448448449,0.0020460965472874,0.03477115640686,0.0330410029819432,0.0789192231158177
4.4944944944945,0.002043815820433,0.0347277388622589,0.033003742674509,0.0788252165210522
4.50450450450451,0.00204154270340344,0.0346844835545153,0.0329666081386755,0.0787315450628311
4.51451451451452,0.00203927715397465,0.0346413894757648,0.0329295986684643,0.0786382067545878
4.52452452452453,0.00203701913024986,0.0345984556268868,0.0328927135634325,0.0785451996262025
4.53453453453454,0.0020347685906563,0.0345556810174074,0.0328559521286171,0.0784525217238278
4.54454454454455,0.00203252549394202,0.0345130646654034,0.0328193136744797,0.0783601711097158
4.55455455455456,0.00203028979917269,0.0344706055974072,0.0327827975168526,0.0782681458620486
4.56456456456457,0.00202806146572848,0.0344283028483142,0.0327464029768846,0.07817644407477
4.57457457457458,0.00202584045330093,0.03438615546129,0.0327101293809887,0.0780850638574195
4.58458458458459,0.00202362672188994,0.0343441624876798,0.032673976060789,0.0779940033349689
4.5945945945946,0.00202142023180068,0.0343023229869185,0.0326379423530695,0.0779032606476608
4.60460460460461,0.00201922094364066,0.0342606360264426,0.0326020275997227,0.0778128339508486
4.61461461461462,0.00201702881831673,0.0342191006816025,0.0325662311476994,0.0777227214148395
4.62462462462463,0.0020148438170322,0.0341777160355764,0.0325305523489586,0.0776329212247386
4.63463463463464,0.00201266590128393,0.0341364811792858,0.0324949905604181,0.0775434315802957
4.64464464464465,0.00201049503285947,0.0340953952113109,0.0324595451439063,0.0774542506957537
4.65465465465466,0.00200833117383429,0.0340544572378082,0.0324242154661137,0.0773653767996985
4.66466466466467,0.00200617428656896,0.034013666372429,0.0323890008985452,0.0772768081349118
4.67467467467468,0.00200402433370639,0.0339730217362385,0.0323539008174739,0.0771885429582249
4.68468468468469,0.00200188127816915,0.0339325224576364,0.0323189146038939,0.0771005795403745
4.6946946946947,0.00199974508315676,0.0338921676722781,0.0322840416434748,0.0770129161658606
4.70470470470471,0.00199761571214306,0.033851956522998,0.0322492813265164,0.0769255511328058
4.71471471471472,0.00199549312887353,0.033811888159732,0.032214633047904,0.0768384827528168
4.72472472472473,0.00199337729736277,0.0337719617394427,0.0321800962070638,0.0767517093508469
4.73473473473474,0.00199126818189189,0.0337321764260449,0.0321456702079197,0.0766652292650613
4.74474474474475,0.001989165747006,0.0336925313903316,0.0321113544588496,0.0765790408467027
4.75475475475476,0.00198706995751168,0.033653025809902,0.0320771483726429,0.0764931424599599
4.76476476476477,0.00198498077847453,0.0336136588690893,0.0320430513664586,0.076407532481837
4.77477477477478,0.00198289817521673,0.0335744297588904,0.032009062861783,0.0763222093020249
4.78478478478479,0.00198082211331461,0.0335353376768958,0.0319751822843888,0.0762371713227736
4.7947947947948,0.00197875255859623,0.0334963818272208,0.0319414090642945,0.0761524169587672
4.80480480480481,0.00197668947713908,0.0334575614204374,0.0319077426357238,0.0760679446369993
4.81481481481482,0.0019746328352677,0.0334188756735071,0.0318741824370659,0.0759837527966504
4.82482482482483,0.00197258259955139,0.0333803238097145,0.0318407279108363,0.075899839888967
4.83483483483484,0.00197053873680191,0.033341905058602,0.0318073785036379,0.0758162043771418
4.84484484484485,0.00196850121407124,0.0333036186559049,0.0317741336661222,0.0757328447361955
4.85485485485486,0.00196646999864936,0.0332654638434877,0.0317409928529516,0.07564975945286
4.86486486486487,0.00196444505806199,0.033227439869281,0.0317079555227619,0.0755669470254631
4.87487487487488,0.00196242636006849,0.0331895459872193,0.0316750211381251,0.0754844059638144
4.88488488488489,0.00196041387265964,0.0331517814571792,0.0316421891655122,0.0754021347890926
4.8948948948949,0.00195840756405553,0.0331141455449192,0.0316094590752577,0.0753201320337346
4.90490490490491,0.00195640740270346,0.0330766375220193,0.0315768303415233,0.075238396241325
4.91491491491492,0.00195441335727584,0.0330392566658221,0.0315443024422621,0.075156925966488
4.92492492492493,0.00195242539666815,0.0330020022593741,0.0315118748591843,0.0750757197747795
4.93493493493494,0.00195044348999687,0.032964873591368,0.0314795470777217,0.0749947762425817
4.94494494494495,0.00194846760659751,0.0329278699560857,0.031447318586994,0.0749140939569975
4.95495495495496,0.00194649771602256,0.0328909906533421,0.0314151888797746,0.0748336715157475
4.96496496496497,0.00194453378803958,0.0328542349884292,0.031383157452457,0.0747535075270674
4.97497497497498,0.00194257579262921,0.032817602272061,0.0313512238050221,0.074673600609607
4.98498498498499,0.00194062369998325,0.0327810918203198,0.0313193874410048,0.0745939493923299
4.994994994995,0.00193867748050277,0.032744702954602,0.031287647867462,0.0745145525144151
5.00500500500501,0.00193673710479621,0.0327084350015655,0.0312560045949404,0.074435408625159
5.01501501501502,0.00193480254367752,0.032672287293077,0.0312244571374449,0.074356516383879
5.02502502502503,0.0019328737681643,0.0326362591661608,0.031193005012407,0.0742778744598185
5.03503503503504,0.00193095074947603,0.0326003499629471,0.0311616477406542,0.0741994815320519
5.04504504504505,0.00192903345903219,0.0325645590306221,0.031130384846379,0.0741213362893919
5.05505505505506,0.00192712186845054,0.0325288857213781,0.0310992158571085,0.0740434374302974
5.06506506506507,0.00192521594954532,0.0324933293923636,0.0310681403036749,0.0739657836627823
5.07507507507508,0.0019233156743255,0.0324578894056356,0.0310371577201853,0.0738883737043254
5.08508508508509,0.00192142101499311,0.032422565128111,0.0310062676439929,0.0738112062817816
5.0950950950951,0.00191953194394144,0.0323873559315189,0.0309754696156673,0.073734280131294
5.10510510510511,0.00191764843375343,0.0323522611923542,0.0309447631789663,0.073657593998207
5.11511511511512,0.00191577045719996,0.0323172802918308,0.0309141478808077,0.0735811466369798
5.12512512512513,0.00191389798723822,0.0322824126158361,0.0308836232712404,0.0735049368111024
5.13513513513514,0.00191203099701003,0.0322476575548854,0.0308531889034176,0.0734289632930107
5.14514514514515,0.00191016945984029,0.0322130145040774,0.0308228443335685,0.073353224864004
5.15515515515516,0.00190831334923531,0.0321784828630498,0.0307925891209718,0.0732777203141626
5.16516516516517,0.00190646263888128,0.0321440620359359,0.0307624228279284,0.0732024484422666
5.17517517517518,0.00190461730264266,0.0321097514313209,0.0307323450197347,0.0731274080557162
5.18518518518519,0.00190277731456066,0.0320755504621997,0.0307023552646568,0.0730525979704515
5.1951951951952,0.00190094264885171,0.0320414585459345,0.030672453133904,0.0729780170108745
5.20520520520521,0.00189911327990592,0.0320074751042133,0.0306426382016033,0.0729036640097716
5.21521521521522,0.00189728918228557,0.0319735995630083,0.0306129100447737,0.0728295378082365
5.22522522522523,0.00189547033072368,0.0319398313525356,0.0305832682433014,0.0727556372555947
5.23523523523524,0.00189365670012246,0.0319061699072148,0.0305537123799144,0.0726819612093282
5.24524524524525,0.00189184826555194,0.0318726146656291,0.0305242420401581,0.0726085085350016
5.25525525525526,0.00189004500224846,0.031839165070486,0.0304948568123708,0.0725352781061884
5.26526526526527,0.00188824688561328,0.0318058205685787,0.0304655562876596,0.0724622688043988
5.27527527527528,0.00188645389121117,0.0317725806107473,0.0304363400598764,0.0723894795190075
5.28528528528529,0.001884665994769,0.031739444651841,0.0304072077255946,0.0723169091471834
5.2952952952953,0.0018828831721744,0.0317064121506805,0.030378158884085,0.0722445565938185
5.30530530530531,0.00188110539947432,0.031673482570021,0.0303491931372935,0.0721724207714596
5.31531531531532,0.00187933265287376,0.0316406553765152,0.0303203100898175,0.0721005006002386
5.32532532532533,0.00187756490873437,0.0316079300406776,0.0302915093488837,0.0720287950078054
5.33533533533534,0.00187580214357317,0.0315753060368478,0.0302627905243252,0.0719573029292602
5.34534534534535,0.00187404433406121,0.0315427828431558,0.0302341532285599,0.0718860233070874
5.35535535535536,0.00187229145702228,0.0315103599414864,0.0302055970765679,0.0718149550910898
5.36536536536537,0.00187054348943165,0.031478036817445,0.0301771216858702,0.0717440972383236
5.37537537537538,0.00186880040841477,0.0314458129603228,0.0301487266765072,0.071673448713034
5.38538538538539,0.00186706219124601,0.0314136878630635,0.030120411671017,0.0716030084865921
5.3953953953954,0.00186532881534745,0.0313816610222292,0.0300921762944146,0.0715327755374312
5.40540540540541,0.00186360025828762,0.0313497319379677,0.0300640201741711,0.0714627488509853
5.41541541541542,0.00186187649778027,0.0313179001139796,0.030035942940193,0.0713929274196271
5.42542542542543,0.00186015751168322,0.0312861650574856,0.0300079442248016,0.0713233102426073
5.43543543543544,0.00185844327799708,0.031254526279195,0.0299800236627132,0.0712538963259943
5.44544544544545,0.00185673377486416,0.0312229832932738,0.0299521808910184,0.0711846846826147
5.45545545545546,0.00185502898056722,0.0311915356173131,0.029924415549163,0.0711156743319941
5.46546546546547,0.00185332887352835,0.0311601827722984,0.0298967272789281,0.0710468643002991
5.47547547547548,0.00185163343230784,0.031128924282579,0.0298691157244103,0.0709782536202791
5.48548548548549,0.00184994263560299,0.0310977596758374,0.0298415805320033,0.0709098413312098
5.4954954954955,0.00184825646224704,0.0310666884830596,0.0298141213503782,0.0708416264788362
5.50550550550551,0.00184657489120803,0.0310357102385053,0.0297867378304649,0.0707736081153168
5.51551551551552,0.0018448979015877,0.0310048244796788,0.0297594296254336,0.0707057852991687
5.52552552552553,0.00184322547262041,0.0309740307472994,0.0297321963906761,0.0706381570952121
5.53553553553554,0.00184155758367203,0.0309433285852738,0.0297050377837878,0.0705707225745169
5.54554554554555,0.00183989421423893,0.0309127175406664,0.0296779534645492,0.0705034808143485
5.55555555555556,0.00183823534394684,0.0308821971636724,0.0296509430949085,0.0704364308981154
5.56556556556557,0.00183658095254989,0.0308517670075893,0.0296240063389637,0.0703695719153161
5.57557557557558,0.0018349310199295,0.0308214266287897,0.0295971428629448,0.0703029029614874
5.58558558558559,0.00183328552609339,0.0307911755866944,0.0295703523351968,0.0702364231381532
5.5955955955956,0.00183164445117455,0.0307610134437448,0.0295436344261622,0.0701701315527736
5.60560560560561,0.00183000777543024,0.030730939765377,0.0295169888083643,0.0701040273186941
5.61561561561562,0.00182837547924099,0.0307009541199955,0.02949041515639,0.0700381095550965
5.62562562562563,0.0018267475431096,0.0306710560789465,0.0294639131468733,0.0699723773869492
5.63563563563564,0.00182512394766019,0.030641245216493,0.0294374824584787,0.0699068299449583
5.64564564564565,0.00182350467363719,0.0306115211097888,0.0294111227718851,0.0698414663655196
5.65565565565566,0.00182188970190443,0.0305818833388535,0.0293848337697689,0.0697762857906708
5.66566566566567,0.00182027901344415,0.0305523314865474,0.029358615136789,0.069711287368044
5.67567567567568,0.00181867258935608,0.0305228651385473,0.0293324665595699,0.0696464702508188
5.68568568568569,0.00181707041085649,0.0304934838833216,0.0293063877266865,0.0695818335976766
5.6956956956957,0.0018154724592773,0.0304641873121063,0.0292803783286485,0.0695173765727539
5.70570570570571,0.00181387871606513,0.0304349750188812,0.029254438057885,0.0694530983455975
5.71571571571572,0.00181228916278043,0.0304058466003463,0.029228566608729,0.0693889980911191
5.72572572572573,0.00181070378109655,0.0303768016558983,0.0292027636774022,0.0693250749895513
5.73573573573574,0.00180912255279887,0.0303478397876076,0.0291770289620006,0.0692613282264033
5.74574574574575,0.00180754545978393,0.030318960600195,0.0291513621624791,0.0691977569924173
5.75575575575576,0.00180597248405853,0.0302901637010098,0.0291257629806368,0.0691343604835253
5.76576576576577,0.00180440360773891,0.0302614487000066,0.0291002311201031,0.0690711379008066
5.77577577577578,0.00180283881304986,0.0302328152097236,0.0290747662863223,0.0690080884504453
5.78578578578579,0.00180127808232389,0.0302042628452602,0.0290493681865402,0.0689452113436888
5.7957957957958,0.00179972139800038,0.030175791224256,0.0290240365297895,0.0688825057968056
5.80580580580581,0.00179816874262478,0.0301473999668684,0.028998771026876,0.0688199710310453
5.81581581581582,0.00179662009884774,0.0301190886957521,0.0289735713903645,0.0687576062725969
5.82582582582583,0.00179507544942435,0.0300908570360375,0.0289484373345652,0.0686954107525496
5.83583583583584,0.00179353477721328,0.0300627046153101,0.0289233685755204,0.0686333837068522
5.84584584584585,0.00179199806517603,0.0300346310635898,0.0288983648309904,0.0685715243762742
5.85585585585586,0.00179046529637611,0.0300066360133105,0.0288734258204406,0.0685098320063662
5.86586586586587,0.00178893645397825,0.0299787190992998,0.0288485512650283,0.068448305847422
5.87587587587588,0.00178741152124766,0.0299508799587592,0.0288237408875894,0.0683869451544397
5.88588588588589,0.0017858904815492,0.0299231182312442,0.0287989944126254,0.0683257491870842
5.8958958958959,0.0017843733183467,0.0298954335586445,0.0287743115662907,0.0682647172096494
5.90590590590591,0.00178286001520212,0.0298678255851648,0.02874969207638,0.0682038484910211
5.91591591591592,0.00178135055577485,0.0298402939573057,0.0287251356723153,0.0681431423046407
5.92592592592593,0.00177984492382098,0.0298128383238444,0.0287006420851337,0.0680825979284679
5.93593593593594,0.00177834310319252,0.0297854583358162,0.0286762110474751,0.0680222146449454
5.94594594594595,0.00177684507783671,0.0297581536464954,0.0286518422935695,0.0679619917409627
5.95595595595596,0.00177535083179528,0.0297309239113775,0.0286275355592255,0.0679019285078212
5.96596596596597,0.00177386034920377,0.0297037687881604,0.0286032905818177,0.0678420242411985
5.97597597597598,0.00177237361429076,0.0296766879367266,0.028579107100275,0.0677822782411144
5.98598598598599,0.00177089061137722,0.0296496810191253,0.028554984855069,0.0677226898118962
5.995995995996,0.00176941132487581,0.0296227476995545,0.028530923588202,0.0676632582621446
6.00600600600601,0.00176793573929017,0.0295958876443436,0.0285069230431953,0.0676039829047001
6.01601601601602,0.00176646383921425,0.0295691005219362,0.0284829829650783,0.06754486305661
6.02602602602603,0.00176499560933165,0.0295423860028725,0.0284591031003765,0.0674858980390945
6.03603603603604,0.00176353103441493,0.0295157437597727,0.0284352831971007,0.0674270871775149
6.04604604604605,0.00176207009932493,0.0294891734673199,0.0284115230047354,0.0673684298013405
6.05605605605606,0.00176061278901017,0.0294626748022434,0.0283878222742279,0.067309925244117
6.06606606606607,0.00175915908850614,0.0294362474433025,0.0283641807579778,0.0672515728434342
6.07607607607608,0.00175770898293468,0.0294098910712697,0.0283405982098252,0.0671933719408948
6.08608608608609,0.00175626245750337,0.0293836053689148,0.0283170743850409,0.0671353218820833
6.0960960960961,0.00175481949750481,0.0293573900209887,0.0282936090403149,0.0670774220165348
6.10610610610611,0.0017533800883161,0.0293312447142078,0.0282702019337465,0.0670196716977044
6.11611611611612,0.00175194421539814,0.0293051691372377,0.0282468528248335,0.0669620702829374
6.12612612612613,0.00175051186429503,0.0292791629806785,0.0282235614744618,0.0669046171334384
6.13613613613614,0.00174908302063348,0.0292532259370484,0.0282003276448952,0.0668473116142425
6.14614614614615,0.00174765767012219,0.0292273577007692,0.0281771510997651,0.0667901530941848
6.15615615615616,0.00174623579855125,0.0292015579681508,0.0281540316040608,0.0667331409458721
6.16616616616617,0.00174481739179154,0.0291758264373764,0.0281309689241188,0.0666762745456536
6.17617617617618,0.00174340243579416,0.0291501628084874,0.0281079628276134,0.0666195532735921
6.18618618618619,0.00174199091658981,0.0291245667833692,0.028085013083547,0.066562976513436
6.1961961961962,0.00174058282028824,0.0290990380657361,0.0280621194622397,0.0665065436525907
6.20620620620621,0.00173917813307769,0.0290735763611173,0.0280392817353201,0.0664502540820912
6.21621621621622,0.00173777684122427,0.0290481813768423,0.028016499675716,0.0663941071965743
6.22622622622623,0.00173637893107143,0.0290228528220272,0.0279937730576443,0.0663381023942511
6.23623623623624,0.00173498438903941,0.0289975904075603,0.0279711016566018,0.0662822390768801
6.24624624624625,0.00173359320162466,0.0289723938460884,0.0279484852493563,0.0662265166497406
6.25625625625626,0.00173220535539931,0.0289472628520033,0.0279259236139368,0.0661709345216054
6.26626626626627,0.00173082083701062,0.0289221971414276,0.0279034165296246,0.0661154921047152
6.27627627627628,0.00172943963318042,0.028897196432202,0.0278809637769444,0.066060188814752
6.28628628628629,0.00172806173070463,0.0288722604438713,0.0278585651376549,0.0660050240708136
6.2962962962963,0.00172668711645265,0.0288473888976715,0.0278362203947404,0.0659499972953877
6.30630630630631,0.00172531577736691,0.0288225815165168,0.0278139293324014,0.0658951079143265
6.31631631631632,0.0017239477004623,0.0287978380249863,0.0277916917360463,0.0658403553568218
6.32632632632633,0.0017225828728257,0.0287731581493115,0.0277695073922826,0.0657857390553798
6.33633633633634,0.0017212212816154,0.0287485416173635,0.0277473760889082,0.0657312584457965
6.34634634634635,0.00171986291406065,0.0287239881586402,0.0277252976149029,0.0656769129671333
6.35635635635636,0.00171850775746115,0.0286994975042539,0.0277032717604201,0.0656227020616926
6.36636636636637,0.00171715579918652,0.0286750693869191,0.0276812983167782,0.0655686251749938
6.37637637637638,0.00171580702667584,0.0286507035409402,0.0276593770764524,0.0655146817557496
6.38638638638639,0.00171446142743713,0.028626399702199,0.0276375078330667,0.0654608712558422
6.3963963963964,0.00171311898904689,0.0286021576081434,0.0276156903813852,0.0654071931303
6.40640640640641,0.00171177969914961,0.0285779769977746,0.0275939245173045,0.0653536468372746
6.41641641641642,0.00171044354545728,0.0285538576116361,0.0275722100378455,0.0653002318380175
6.42642642642643,0.00170911051574893,0.0285297991918014,0.0275505467411454,0.0652469475968574
6.43643643643644,0.00170778059787017,0.028505801481863,0.02752893442645,0.0651937935811781
6.44644644644645,0.0017064537797327,0.0284818642269202,0.0275073728941055,0.0651407692613953
6.45645645645646,0.00170513004931384,0.0284579871735685,0.0274858619455513,0.0650878741109352
6.46646646646647,0.00170380939465613,0.0284341700698876,0.0274644013833118,0.0650351076062122
6.47647647647648,0.00170249180386683,0.0284104126654309,0.0274429910109893,0.0649824692266071
6.48648648648649,0.00170117726511744,0.028386714711214,0.0274216306332559,0.0649299584544456
6.4964964964965,0.00169986576664335,0.0283630759597039,0.0274003200558463,0.0648775747749771
6.50650650650651,0.00169855729674331,0.0283394961648081,0.0273790590855507,0.064825317676353
6.51651651651652,0.00169725184377902,0.0283159750818639,0.0273578475302066,0.0647731866496063
6.52652652652653,0.0016959493961747,0.0282925124676276,0.0273366851986924,0.0647211811886304
6.53653653653654,0.00169464994241667,0.0282691080802641,0.0273155719009197,0.0646693007901585
6.54654654654655,0.00169335347105289,0.0282457616793363,0.0272945074478261,0.0646175449537433
6.55655655655656,0.00169205997069257,0.028222473025795,0.0272734916513683,0.0645659131817366
6.56656656656657,0.00169076943000573,0.028199241881968,0.0272525243245148,0.0645144049792692
6.57657657657658,0.00168948183772278,0.0281760680115507,0.0272316052812394,0.064463019854231
6.58658658658659,0.00168819718263412,0.0281529511795954,0.0272107343365135,0.0644117573172514
6.5965965965966,0.00168691545358974,0.0281298911525016,0.0271899113062999,0.0643606168816795
6.60660660660661,0.00168563663949877,0.028106887698006,0.0271691360075457,0.0643095980635646
6.61661661661662,0.00168436072932912,0.0280839405851727,0.0271484082581755,0.0642587003816376
6.62662662662663,0.00168308771210707,0.0280610495843834,0.027127727877085,0.0642079233572909
6.63663663663664,0.00168181757691686,0.0280382144673277,0.0271070946841338,0.0641572665145607
6.64664664664665,0.00168055031290031,0.0280154350069938,0.0270865085001394,0.0641067293801071
6.65665665665666,0.00167928590925642,0.0279927109776587,0.0270659691468703,0.0640563114831965
6.66666666666667,0.001678024355241,0.0279700421548791,0.0270454764470396,0.0640060123556824
6.67667667667668,0.00167676564016627,0.0279474283154818,0.0270250302242986,0.0639558315319877
6.68668668668669,0.00167550975340049,0.0279248692375546,0.0270046303032305,0.0639057685490864
6.6966966966967,0.00167425668436756,0.0279023647004374,0.026984276509344,0.0638558229464856
6.70670670670671,0.00167300642254669,0.0278799144847126,0.0269639686690669,0.0638059942662076
6.71671671671672,0.00167175895747198,0.0278575183721966,0.0269437066097401,0.0637562820527727
6.72672672672673,0.0016705142787321,0.0278351761459307,0.0269234901596113,0.0637066858531812
6.73673673673674,0.00166927237596989,0.0278128875901722,0.0269033191478291,0.0636572052168966
6.74674674674675,0.00166803323888199,0.0277906524903858,0.0268831934044366,0.0636078396958277
6.75675675675676,0.00166679685721853,0.0277684706332348,0.0268631127603656,0.0635585888443123
6.76676676676677,0.00166556322078272,0.0277463418065727,0.0268430770474305,0.0635094522190998
6.77677677677678,0.00166433231943054,0.0277242657994344,0.0268230860983228,0.0634604293793347
6.78678678678679,0.00166310414307034,0.0277022424020279,0.0268031397466045,0.0634115198865398
6.7967967967968,0.00166187868166255,0.0276802714057259,0.0267832378267028,0.0633627233045999
6.80680680680681,0.00166065592521931,0.0276583526030578,0.0267633801739045,0.0633140391997453
6.81681681681682,0.0016594358638041,0.0276364857877008,0.0267435666243496,0.0632654671405359
6.82682682682683,0.00165821848753144,0.0276146707544723,0.0267237970150263,0.0632170066978447
6.83683683683684,0.00165700378656655,0.0275929072993218,0.0267040711837648,0.0631686574448423
6.84684684684685,0.00165579175112499,0.0275711952193224,0.0266843889692322,0.0631204189569808
6.85685685685686,0.00165458237147236,0.0275495343126636,0.0266647502109268,0.0630722908119784
6.86686686686687,0.00165337563792394,0.0275279243786426,0.0266451547491723,0.0630242725898036
6.87687687687688,0.0016521715408444,0.0275063652176571,0.0266256024251127,0.06297636387266
6.88688688688689,0.00165097007064745,0.0274848566311973,0.026606093080707,0.062928564244971
6.8968968968969,0.00164977121779552,0.0274633984218385,0.0265866265587234,0.0628808732933646
6.90690690690691,0.00164857497279945,0.0274419903932328,0.0265672027027341,0.0628332906066586
6.91691691691692,0.0016473813262182,0.0274206323501025,0.0265478213571104,0.0627858157758453
6.92692692692693,0.00164619026865848,0.0273993240982319,0.0265284823670171,0.062738448394077
6.93693693693694,0.00164500179077448,0.02737806544446,0.0265091855784072,0.0626911880566514
6.94694694694695,0.00164381588326757,0.0273568561966736,0.0264899308380172,0.0626440343609971
6.95695695695696,0.00164263253688595,0.0273356961637994,0.0264707179933615,0.0625969869066589
6.96696696696697,0.00164145174242438,0.0273145851557971,0.0264515468927278,0.0625500452952838
6.97697697697698,0.0016402734907239,0.0272935229836522,0.0264324173851715,0.0625032091306067
6.98698698698699,0.00163909777267148,0.0272725094593689,0.0264133293205113,0.0624564780184365
6.996996996997,0.00163792457919974,0.0272515443959631,0.0263942825493239,0.0624098515666421
7.00700700700701,0.00163675390128669,0.027230627607455,0.026375276922939,0.0623633293851383
7.01701701701702,0.00163558572995541,0.027209758908863,0.0263563122934349,0.0623169110858726
7.02702702702703,0.00163442005627374,0.0271889381161958,0.0263373885136331,0.0622705962828112
7.03703703703704,0.00163325687135405,0.0271681650464466,0.0263185054370938,0.0622243845919257
7.04704704704705,0.0016320961663529,0.0271474395175855,0.0262996629181112,0.0621782756311797
7.05705705705706,0.0016309379324708,0.0271267613485533,0.0262808608117086,0.0621322690205156
7.06706706706707,0.00162978216095189,0.0271061303592548,0.0262620989736338,0.0620863643818411
7.07707707707708,0.0016286288430837,0.027085546370552,0.0262433772603543,0.0620405613390167
7.08708708708709,0.00162747797019684,0.0270650092042578,0.0262246955290532,0.0619948595178422
7.0970970970971,0.00162632953366476,0.0270445186831294,0.0262060536376238,0.0619492585460445
7.10710710710711,0.00162518352490346,0.0270240746308618,0.026187451444666,0.0619037580532641
7.11711711711712,0.00162403993537121,0.0270036768720816,0.0261688888094808,0.0618583576710432
7.12712712712713,0.00162289875656829,0.0269833252323406,0.0261503655920666,0.0618130570328124
7.13713713713714,0.00162175998003676,0.0269630195381096,0.0261318816531146,0.0617678557738792
7.14714714714715,0.00162062359736014,0.026942759616772,0.0261134368540042,0.0617227535314148
7.15715715715716,0.00161948960016317,0.0269225452966179,0.0260950310567987,0.0616777499444424
7.16716716716717,0.00161835798011159,0.0269023764068377,0.0260766641242409,0.0616328446538247
7.17717717717718,0.0016172287289118,0.0268822527775163,0.0260583359197493,0.0615880373022524
7.18718718718719,0.00161610183831069,0.026862174239627,0.0260400463074129,0.0615433275342316
7.1971971971972,0.00161497730009533,0.0268421406250253,0.026021795151988,0.0614987149960725
7.20720720720721,0.00161385510609276,0.0268221517664436,0.0260035823188933,0.0614541993358772
7.21721721721722,0.00161273524816969,0.0268022074974844,0.0259854076742057,0.0614097802035284
7.22722722722723,0.0016116177182323,0.0267823076526155,0.0259672710846569,0.0613654572506778
7.23723723723724,0.00161050250822597,0.0267624520671635,0.0259491724176284,0.0613212301307343
7.24724724724725,0.00160938961013505,0.0267426405773084,0.025931111541148,0.061277098498853
7.25725725725726,0.0016082790159826,0.0267228730200777,0.0259130883238855,0.0612330620119237
7.26726726726727,0.00160717071783015,0.0267031492333411,0.025895102635149,0.0611891203285598
7.27727727727728,0.0016060647077775,0.0266834690558047,0.0258771543448802,0.0611452731090869
7.28728728728729,0.00160496097796242,0.0266638323270054,0.0258592433236516,0.0611015200155323
7.2972972972973,0.00160385952056049,0.0266442388873055,0.0258413694426613,0.0610578607116136
7.30730730730731,0.00160276032778478,0.0266246885778873,0.0258235325737302,0.061014294862728
7.31731731731732,0.00160166339188571,0.0266051812407477,0.0258057325892973,0.0609708221359416
7.32732732732733,0.00160056870515074,0.0265857167186926,0.0257879693624166,0.0609274421999787
7.33733733733734,0.00159947625990421,0.0265662948553319,0.0257702427667527,0.060884154725211
7.34734734734735,0.00159838604850706,0.026546915495074,0.0257525526765773,0.0608409593836472
7.35735735735736,0.00159729806335663,0.0265275784831206,0.0257348989667655,0.0607978558489227
7.36736736736737,0.00159621229688645,0.0265082836654617,0.0257172815127918,0.0607548437962892
7.37737737737738,0.001595128741566,0.0264890308888702,0.025699700190727,0.0607119229026042
7.38738738738739,0.00159404738990048,0.0264698200008968,0.0256821548772337,0.060669092846321
7.3973973973974,0.00159296823443062,0.0264506508498652,0.0256646454495634,0.0606263533074785
7.40740740740741,0.00159189126773245,0.0264315232848668,0.0256471717855526,0.0605837039676914
7.41741741741742,0.00159081648241708,0.0264124371557556,0.025629733763619,0.0605411445101398
7.42742742742743,0.00158974387113052,0.0263933923131439,0.0256123312627586,0.0604986746195596
7.43743743743744,0.0015886734265534,0.0263743886083964,0.0255949641625412,0.0604562939822327
7.44744744744745,0.00158760514140083,0.0263554258936263,0.0255776323431079,0.0604140022859773
7.45745745745746,0.00158653900842217,0.0263365040216898,0.0255603356851671,0.060371799220138
7.46746746746747,0.0015854750204008,0.0263176228461816,0.0255430740699909,0.0603296844755764
7.47747747747748,0.00158441317015394,0.02629878222143,0.0255258473794121,0.0602876577446617
7.48748748748749,0.00158335345053243,0.0262799820024923,0.0255086554958205,0.0602457187212609
7.4974974974975,0.00158229585442056,0.0262612220451502,0.0254914983021599,0.0602038671007297
7.50750750750751,0.00158124037473582,0.0262425022059048,0.025474375681924,0.0601621025799034
7.51751751751752,0.00158018700442874,0.0262238223419724,0.025457287519154,0.0601204248570872
7.52752752752753,0.00157913573648269,0.0262051823112796,0.0254402336984348,0.0600788336320472
7.53753753753754,0.00157808656391364,0.026186581972459,0.0254232141048915,0.0600373286060018
7.54754754754755,0.00157703947977003,0.0261680211848445,0.0254062286241867,0.0599959094816119
7.55755755755756,0.00157599447713254,0.0261494998084671,0.0253892771425171,0.0599545759629725
7.56756756756757,0.00157495154911388,0.0261310177040502,0.0253723595466099,0.0599133277556035
7.57757757757758,0.00157391068885865,0.0261125747330052,0.0253554757237202,0.0598721645664414
7.58758758758759,0.0015728718895431,0.0260941707574273,0.0253386255616275,0.0598310861038299
7.5975975975976,0.00157183514437499,0.0260758056400912,0.0253218089486325,0.0597900920775115
7.60760760760761,0.00157080044659334,0.0260574792444467,0.0253050257735544,0.0597491821986192
7.61761761761762,0.00156976778946832,0.0260391914346143,0.0252882759257274,0.0597083561796674
7.62762762762763,0.00156873716630101,0.0260209420753812,0.0252715592949978,0.0596676137345437
7.63763763763764,0.00156770857042324,0.0260027310321969,0.0252548757717209,0.0596269545785005
7.64764764764765,0.00156668199519741,0.0259845581711694,0.0252382252467581,0.0595863784281467
7.65765765765766,0.00156565743401631,0.0259664233590606,0.0252216076114738,0.0595458850014392
7.66766766766767,0.00156463488030291,0.0259483264632825,0.0252050227577323,0.0595054740176748
7.67767767767768,0.00156361432751025,0.0259302673518929,0.0251884705778953,0.0594651451974818
7.68768768768769,0.00156259576912118,0.0259122458935916,0.0251719509648183,0.0594248982628124
7.6976976976977,0.00156157919864827,0.0258942619577164,0.0251554638118484,0.0593847329369341
7.70770770770771,0.00156056460963357,0.0258763154142387,0.0251390090128207,0.059344648944422
7.71771771771772,0.00155955199564846,0.0258584061337603,0.0251225864620561,0.0593046460111509
7.72772772772773,0.00155854135029351,0.0258405339875085,0.0251061960543579,0.0592647238642872
7.73773773773774,0.00155753266719824,0.0258226988473333,0.0250898376850092,0.0592248822322813
7.74774774774775,0.00155652594002103,0.0258049005857025,0.0250735112497703,0.0591851208448597
7.75775775775776,0.0015555211624489,0.0257871390756988,0.0250572166448755,0.0591454394330173
7.76776776776777,0.00155451832819736,0.0257694141910152,0.0250409537670306,0.05910583772901
7.77777777777778,0.00155351743101025,0.0257517258059517,0.0250247225134101,0.0590663154663469
7.78778778778779,0.00155251846465956,0.0257340737954117,0.0250085227816543,0.0590268723797825
7.7977977977978,0.00155152142294528,0.0257164580348977,0.024992354469867,0.05898750820531
7.80780780780781,0.00155052629969525,0.0256988784005079,0.0249762174766123,0.0589482226801529
7.81781781781782,0.00154953308876498,0.025681334768933,0.0249601117009123,0.0589090155427584
7.82782782782783,0.00154854178403748,0.0256638270174517,0.0249440370422444,0.05886988653279
7.83783783783784,0.00154755237942313,0.0256463550239278,0.0249279934005383,0.0588308353911196
7.84784784784785,0.00154656486885952,0.0256289186668062,0.0249119806761739,0.058791861859821
7.85785785785786,0.00154557924631128,0.0256115178251097,0.0248959987699785,0.0587529656821626
7.86786786786787,0.00154459550576991,0.0255941523784352,0.024880047583224,0.0587141466025999
7.87787787787788,0.00154361364125367,0.0255768222069501,0.0248641270176247,0.0586754043667691
7.88788788788789,0.00154263364680741,0.0255595271913893,0.0248482369753344,0.0586367387214793
7.8978978978979,0.00154165551650238,0.0255422672130514,0.0248323773589443,0.0585981494147064
7.90790790790791,0.00154067924443613,0.0255250421537953,0.0248165480714801,0.0585596361955856
7.91791791791792,0.00153970482473235,0.0255078518960367,0.0248007490163996,0.0585211988144047
7.92792792792793,0.0015387322515407,0.0254906963227451,0.0247849800975903,0.0584828370225974
7.93793793793794,0.00153776151903668,0.0254735753174401,0.0247692412193672,0.0584445505727364
7.94794794794795,0.00153679262142147,0.0254564887641884,0.0247535322864698,0.058406339218527
7.95795795795796,0.00153582555292181,0.0254394365476001,0.02473785320406,0.0583682027148001
7.96796796796797,0.00153486030778982,0.0254224185528257,0.0247222038777199,0.0583301408175056
7.97797797797798,0.00153389688030289,0.0254054346655528,0.0247065842134488,0.0582921532837061
7.98798798798799,0.00153293526476353,0.0253884847720029,0.0246909941176615,0.0582542398715703
7.997997997998,0.00153197545549919,0.0253715687589281,0.0246754334971855,0.0582164003403664
8.00800800800801,0.00153101744686219,0.025354686513608,0.024659902259259,0.0581786344504557
8.01801801801802,0.00153006123322951,0.0253378379238466,0.0246444003115282,0.0581409419632865
8.02802802802803,0.0015291068090027,0.0253210228779691,0.0246289275620453,0.0581033226413874
8.03803803803804,0.00152815416860771,0.0253042412648186,0.024613483919266,0.0580657762483612
8.04804804804805,0.00152720330649479,0.0252874929737535,0.0245980692920473,0.0580283025488786
8.05805805805806,0.00152625421713832,0.0252707778946438,0.0245826835896454,0.0579909013086721
8.06806806806807,0.00152530689503668,0.0252540959178688,0.0245673267217132,0.0579535722945299
8.07807807807808,0.00152436133471214,0.0252374469343133,0.0245519985982983,0.0579163152742896
8.08808808808809,0.0015234175307107,0.0252208308353652,0.0245366991298406,0.0578791300168321
8.0980980980981,0.00152247547760198,0.0252042475129123,0.02452142822717,0.0578420162920758
8.10810810810811,0.00152153516997905,0.0251876968593393,0.0245061858015048,0.0578049738709705
8.11811811811812,0.00152059660245836,0.0251711787675248,0.0244909717644487,0.0577680025254917
8.12812812812813,0.00151965976967955,0.0251546931308389,0.0244757860279894,0.057731102028634
8.13813813813814,0.00151872466630538,0.0251382398431393,0.024460628504496,0.0576942721544063
8.14814814814815,0.00151779128702155,0.0251218187987697,0.0244454991067169,0.057657512677825
8.15815815815816,0.00151685962653658,0.0251054298925558,0.024430397747778,0.0576208233749089
8.16816816816817,0.00151592967958174,0.0250890730198033,0.0244153243411804,0.057584204022673
8.17817817817818,0.00151500144091084,0.0250727480762945,0.0244002788007981,0.0575476543991232
8.18818818818819,0.00151407490530018,0.0250564549582859,0.0243852610408763,0.0575111742832504
8.1981981981982,0.00151315006754838,0.0250401935625053,0.0243702709760294,0.0574747634550251
8.20820820820821,0.00151222692247627,0.0250239637861491,0.0243553085212384,0.0574384216953913
8.21821821821822,0.0015113054649268,0.0250077655268793,0.0243403735918494,0.0574021487862619
8.22822822822823,0.00151038568976484,0.0249915986828213,0.0243254661035716,0.0573659445105122
8.23823823823824,0.00150946759187716,0.0249754631525608,0.0243105859724748,0.057329808651975
8.24824824824825,0.00150855116617222,0.0249593588351411,0.0242957331149881,0.0572937409954353
8.25825825825826,0.00150763640758013,0.0249432856300609,0.0242809074478972,0.0572577413266244
8.26826826826827,0.00150672331105245,0.024927243437271,0.0242661088883432,0.057221809432215
8.27827827827828,0.00150581187156216,0.0249112321571724,0.0242513373538201,0.0571859450998158
8.28828828828829,0.00150490208410348,0.0248952516906131,0.0242365927621729,0.0571501481179659
8.2982982982983,0.00150399394369177,0.0248793019388858,0.0242218750315959,0.0571144182761302
8.30830830830831,0.00150308744536343,0.0248633828037255,0.024207184080631,0.0570787553646934
8.31831831831832,0.00150218258417578,0.0248474941873065,0.0241925198281651,0.0570431591749556
8.32832832832833,0.00150127935520693,0.0248316359922403,0.0241778821934289,0.0570076294991267
8.33833833833834,0.00150037775355569,0.0248158081215729,0.0241632710959947,0.0569721661303215
8.34834834834835,0.00149947777434145,0.0248000104787823,0.0241486864557745,0.0569367688625544
8.35835835835836,0.00149857941270408,0.0247842429677762,0.0241341281930186,0.0569014374907347
8.36836836836837,0.00149768266380377,0.0247685054928893,0.0241195962283131,0.0568661718106615
8.37837837837838,0.001496787522821,0.024752797958881,0.0241050904825785,0.0568309716190186
8.38838838838839,0.00149589398495637,0.0247371202709329,0.024090610877068,0.0567958367133697
8.3983983983984,0.00149500204543052,0.0247214723346466,0.0240761573333653,0.0567607668921536
8.40840840840841,0.001494111699484,0.024705854056041,0.0240617297733832,0.056725761954679
8.41841841841842,0.0014932229423772,0.0246902653415503,0.0240473281193614,0.0566908217011202
8.42842842842843,0.00149233576939019,0.0246747060980213,0.0240329522938654,0.0566559459325117
8.43843843843844,0.00149145017582269,0.0246591762327111,0.024018602219784,0.0566211344507441
8.44844844844845,0.00149056615699387,0.0246436756532852,0.0240042778203281,0.0565863870585589
8.45845845845846,0.00148968370824235,0.0246282042678145,0.0239899790190287,0.0565517035595437
8.46846846846847,0.00148880282492601,0.0246127619847738,0.0239757057397353,0.0565170837581281
8.47847847847848,0.00148792350242193,0.0245973487130386,0.0239614579066143,0.0564825274595787
8.48848848848849,0.00148704573612628,0.0245819643618839,0.0239472354441471,0.0564480344699944
8.4984984984985,0.00148616952145424,0.024566608840981,0.0239330382771283,0.056413604596302
8.50850850850851,0.00148529485383984,0.0245512820603959,0.0239188663306645,0.0563792376462518
8.51851851851852,0.00148442172873592,0.0245359839305868,0.0239047195301723,0.0563449334284128
8.52852852852853,0.00148355014161403,0.0245207143624019,0.0238905978013766,0.0563106917521683
8.53853853853854,0.00148268008796426,0.0245054732670775,0.0238765010703093,0.0562765124277116
8.54854854854855,0.00148181156329524,0.0244902605562354,0.0238624292633073,0.0562423952660414
8.55855855855856,0.00148094456313397,0.0244750761418811,0.023848382307011,0.0562083400789577
8.56856856856857,0.00148007908302575,0.0244599199364016,0.0238343601283629,0.0561743466790569
8.57857857857858,0.0014792151185341,0.0244447918525629,0.0238203626546057,0.056140414879728
8.58858858858859,0.00147835266524063,0.0244296918035086,0.0238063898132809,0.056106544495148
8.5985985985986,0.00147749171874495,0.0244146197027572,0.0237924415322272,0.056072735340278
8.60860860860861,0.00147663227466463,0.0243995754642001,0.0237785177395789,0.0560389872308583
8.61861861861862,0.00147577432863502,0.0243845590021,0.0237646183637642,0.0560052999834048
8.62862862862863,0.00147491787630922,0.0243695702310883,0.0237507433335041,0.0559716734152044
8.63863863863864,0.00147406291335797,0.0243546090661633,0.0237368925778104,0.0559381073443112
8.64864864864865,0.00147320943546956,0.024339675422688,0.0237230660259844,0.0559046015895421
8.65865865865866,0.00147235743834971,0.0243247692163886,0.0237092636076153,0.0558711559704727
8.66866866866867,0.00147150691772154,0.0243098903633517,0.0236954852525787,0.0558377703074333
8.67867867867868,0.00147065786932542,0.0242950387800231,0.0236817308910352,0.0558044444215049
8.68868868868869,0.00146981028891891,0.0242802143832054,0.0236680004534288,0.055771178134515
8.6986986986987,0.00146896417227666,0.0242654170900559,0.0236542938704855,0.0557379712690338
8.70870870870871,0.00146811951519035,0.0242506468180853,0.0236406110732118,0.0557048236483702
8.71871871871872,0.00146727631346856,0.0242359034851549,0.0236269519928933,0.0556717350965675
8.72872872872873,0.00146643456293669,0.0242211870094755,0.023613316561093,0.0556387054384001
8.73873873873874,0.00146559425943691,0.0242064973096048,0.0235997047096502,0.0556057344993689
8.74874874874875,0.00146475539882805,0.0241918343044462,0.023586116370679,0.0555728221056981
8.75875875875876,0.00146391797698548,0.0241771979132463,0.0235725514765666,0.055539968084331
8.76876876876877,0.00146308198980109,0.0241625880555933,0.0235590099599722,0.055507172262926
8.77877877877878,0.00146224743318316,0.0241480046514151,0.0235454917538254,0.0554744344698532
8.78878878878879,0.0014614143030563,0.0241334476209777,0.0235319967913251,0.0554417545341903
8.7987987987988,0.00146058259536133,0.024118916884883,0.0235185250059376,0.0554091322857194
8.80880880880881,0.00145975230605526,0.0241044123640671,0.0235050763313958,0.0553765675549223
8.81881881881882,0.00145892343111114,0.0240899339797985,0.0234916507016974,0.0553440601729777
8.82882882882883,0.00145809596651801,0.0240754816536766,0.0234782480511036,0.0553116099717574
8.83883883883884,0.00145726990828084,0.0240610553076293,0.0234648683141382,0.0552792167838219
8.84884884884885,0.00145644525242039,0.0240466548639118,0.0234515114255854,0.0552468804424179
8.85885885885886,0.0014556219949732,0.0240322802451046,0.0234381773204893,0.0552146007814737
8.86886886886887,0.00145480013199145,0.0240179313741118,0.0234248659341523,0.0551823776355963
8.87887887887888,0.00145397965954291,0.0240036081741591,0.0234115772021334,0.0551502108400673
8.88888888888889,0.00145316057371088,0.0239893105687926,0.0233983110602475,0.0551181002308399
8.8988988988989,0.00145234287059404,0.0239750384818766,0.0233850674445636,0.0550860456445351
8.90890890890891,0.00145152654630647,0.0239607918375923,0.0233718462914039,0.055054046918438
8.91891891891892,0.00145071159697749,0.0239465705604357,0.0233586475373421,0.0550221038904949
8.92892892892893,0.00144989801875163,0.0239323745752162,0.0233454711192026,0.0549902163993091
8.93893893893894,0.00144908580778853,0.0239182038070548,0.0233323169740588,0.0549583842841384
8.94894894894895,0.00144827496026287,0.0239040581813826,0.023319185039232,0.0549266073848907
8.95895895895896,0.00144746547236431,0.0238899376239391,0.0233060752522903,0.0548948855421214
8.96896896896897,0.0014466573402974,0.0238758420607702,0.0232929875510471,0.0548632185970297
8.97897897897898,0.00144585056028148,0.0238617714182271,0.0232799218735601,0.0548316063914552
8.98898898898899,0.00144504512855067,0.0238477256229645,0.0232668781581297,0.0548000487678749
8.998998998999,0.00144424104135374,0.023833704601939,0.0232538563432983,0.0547685455693994
9.00900900900901,0.00144343829495405,0.0238197082824071,0.0232408563678487,0.0547370966397703
9.01901901901902,0.00144263688562949,0.0238057365919245,0.0232278781708029,0.0547057018233561
9.02902902902903,0.00144183680967241,0.0237917894583436,0.0232149216914211,0.0546743609651497
9.03903903903904,0.00144103806338951,0.0237778668098125,0.0232019868692003,0.0546430739107651
9.04904904904905,0.00144024064310182,0.0237639685747732,0.0231890736438735,0.0546118405064336
9.05905905905906,0.0014394445451446,0.0237500946819604,0.0231761819554077,0.0545806605990013
9.06906906906907,0.00143864976586727,0.0237362450603993,0.0231633117440039,0.0545495340359256
9.07907907907908,0.00143785630163335,0.0237224196394048,0.0231504629500947,0.0545184606652722
9.08908908908909,0.00143706414882037,0.0237086183485795,0.0231376355143442,0.054487440335712
9.0990990990991,0.00143627330381983,0.0236948411178124,0.0231248293776462,0.0544564728965178
9.10910910910911,0.00143548376303711,0.0236810878772774,0.0231120444811231,0.0544255581975616
9.11911911911912,0.0014346955228914,0.0236673585574318,0.0230992807661252,0.0543946960893109
9.12912912912913,0.00143390857981566,0.0236536530890147,0.0230865381742291,0.0543638864228266
9.13913913913914,0.00143312293025651,0.0236399714030456,0.0230738166472368,0.054333129049759
9.14914914914915,0.00143233857067418,0.0236263134308232,0.0230611161271744,0.0543024238223456
9.15915915915916,0.00143155549754247,0.0236126791039234,0.0230484365562914,0.0542717705934075
9.16916916916917,0.00143077370734865,0.0235990683541985,0.0230357778770591,0.0542411692163469
9.17917917917918,0.00142999319659338,0.0235854811137753,0.0230231400321698,0.0542106195451439
9.18918918918919,0.00142921396179071,0.0235719173150538,0.0230105229645356,0.0541801214343536
9.1991991991992,0.00142843599946793,0.023558376890706,0.0229979266172876,0.0541496747391033
9.20920920920921,0.00142765930616559,0.023544859773674,0.0229853509337742,0.0541192793150896
9.21921921921922,0.00142688387843736,0.0235313658971691,0.0229727958575606,0.0540889350185753
9.22922922922923,0.00142610971285001,0.0235178951946705,0.0229602613324276,0.0540586417063868
9.23923923923924,0.00142533680598333,0.0235044475999231,0.0229477473023703,0.0540283992359113
9.24924924924925,0.00142456515443009,0.0234910230469372,0.0229352537115975,0.0539982074650936
9.25925925925926,0.00142379475479594,0.0234776214699864,0.0229227805045303,0.0539680662524337
9.26926926926927,0.00142302560369937,0.0234642428036064,0.0229103276258009,0.053937975456984
9.27927927927928,0.00142225769777164,0.0234508869825939,0.0228978950202522,0.0539079349383461
9.28928928928929,0.00142149103365674,0.023437553942005,0.0228854826329361,0.0538779445566686
9.2992992992993,0.00142072560801127,0.023424243617154,0.022873090409113,0.0538480041726441
9.30930930930931,0.00141996141750446,0.0234109559436122,0.0228607182942504,0.0538181136475063
9.31931931931932,0.00141919845881806,0.0233976908572061,0.0228483662340221,0.0537882728430277
9.32932932932933,0.00141843672864626,0.0233844482940168,0.0228360341743073,0.0537584816215166
9.33933933933934,0.00141767622369568,0.0233712281903782,0.0228237220611892,0.0537287398458146
9.34934934934935,0.00141691694068529,0.0233580304828759,0.0228114298409544,0.0536990473792939
9.35935935935936,0.00141615887634633,0.0233448551083457,0.0227991574600918,0.0536694040858546
9.36936936936937,0.00141540202742229,0.0233317020038729,0.0227869048652916,0.0536398098299222
9.37937937937938,0.00141464639066881,0.0233185711067902,0.0227746720034443,0.0536102644764448
9.38938938938939,0.00141389196285366,0.0233054623546773,0.0227624588216397,0.0535807678908909
9.3993993993994,0.00141313874075664,0.0232923756853591,0.0227502652671661,0.0535513199392462
9.40940940940941,0.00141238672116957,0.0232793110369045,0.0227380912875093,0.0535219204880118
9.41941941941942,0.00141163590089619,0.0232662683476254,0.0227259368303515,0.0534925694042011
9.42942942942943,0.00141088627675214,0.0232532475560755,0.0227138018435704,0.0534632665553372
9.43943943943944,0.00141013784556486,0.0232402486010487,0.0227016862752385,0.0534340118094512
9.44944944944945,0.00140939060417358,0.0232272714215782,0.0226895900736217,0.0534048050350785
9.45945945945946,0.00140864454942923,0.0232143159569354,0.0226775131871789,0.0533756461012574
9.46946946946947,0.0014078996781944,0.0232013821466284,0.0226654555645609,0.0533465348775261
9.47947947947948,0.00140715598734327,0.0231884699304009,0.022653417154609,0.0533174712339202
9.48948948948949,0.0014064134737616,0.0231755792482312,0.022641397906355,0.0532884550409705
9.4994994994995,0.00140567213434659,0.023162710040331,0.0226293977690194,0.0532594861697004
9.50950950950951,0.00140493196600693,0.0231498622471438,0.0226174166920112,0.0532305644916238
9.51951951951952,0.00140419296566264,0.0231370358093444,0.0226054546249264,0.0532016898787421
9.52952952952953,0.00140345513024512,0.0231242306678374,0.0225935115175477,0.0531728622035426
9.53953953953954,0.001402718456697,0.0231114467637559,0.0225815873198432,0.0531440813389954
9.54954954954955,0.00140198294197216,0.0230986840384608,0.0225696819819655,0.0531153471585516
9.55955955955956,0.00140124858303564,0.0230859424335392,0.0225577954542513,0.0530866595361407
9.56956956956957,0.00140051537686359,0.0230732218908036,0.0225459276872198,0.0530580183461681
9.57957957957958,0.00139978332044324,0.0230605223522908,0.0225340786315725,0.0530294234635134
9.58958958958959,0.00139905241077282,0.0230478437602605,0.022522248238192,0.0530008747635273
9.5995995995996,0.00139832264486152,0.0230351860571943,0.0225104364581413,0.0529723721220302
9.60960960960961,0.00139759401972945,0.0230225491857951,0.0224986432426626,0.0529439154153091
9.61961961961962,0.00139686653240756,0.0230099330889851,0.0224868685431772,0.0529155045201157
9.62962962962963,0.00139614017993762,0.0229973377099054,0.0224751123112836,0.0528871393136645
9.63963963963964,0.00139541495937216,0.0229847629919148,0.0224633744987577,0.0528588196736298
9.64964964964965,0.0013946908677744,0.0229722088785887,0.0224516550575513,0.0528305454781444
9.65965965965966,0.00139396790221824,0.0229596753137177,0.0224399539397915,0.0528023166057965
9.66966966966967,0.00139324605978816,0.0229471622413072,0.02242827109778,0.0527741329356281
9.67967967967968,0.00139252533757922,0.0229346696055757,0.022416606483992,0.0527459943471328
9.68968968968969,0.00139180573269696,0.0229221973509542,0.0224049600510756,0.0527179007202532
9.6996996996997,0.00139108724225742,0.022909745422085,0.022393331751851,0.0526898519353792
9.70970970970971,0.00139036986338702,0.0228973137638206,0.0223817215393094,0.0526618478733458
9.71971971971972,0.00138965359322255,0.0228849023212228,0.0223701293666127,0.0526338884154307
9.72972972972973,0.00138893842891111,0.0228725110395617,0.0223585551870923,0.0526059734433524
9.73973973973974,0.00138822436761008,0.0228601398643145,0.0223469989542484,0.0525781028392681
9.74974974974975,0.00138751140648706,0.0228477887411645,0.0223354606217495,0.0525502764857716
9.75975975975976,0.00138679954271979,0.0228354576160006,0.0223239401434311,0.052522494265891
9.76976976976977,0.00138608877349618,0.0228231464349154,0.0223124374732953,0.052494756063087
9.77977977977978,0.00138537909601419,0.0228108551442052,0.02230095256551,0.0524670617612508
9.78978978978979,0.00138467050748183,0.0227985836903682,0.0222894853744081,0.0524394112447016
9.7997997997998,0.00138396300511707,0.022786332020104,0.0222780358544865,0.0524118043981852
9.80980980980981,0.00138325658614784,0.0227741000803124,0.0222666039604057,0.0523842411068714
9.81981981981982,0.00138255124781197,0.0227618878180927,0.022255189646989,0.0523567212563525
9.82982982982983,0.00138184698735712,0.0227496951807423,0.0222437928692214,0.0523292447326411
9.83983983983984,0.00138114380204078,0.0227375221157562,0.0222324135822493,0.052301811422168
9.84984984984985,0.00138044168913016,0.0227253685708258,0.0222210517413794,0.0522744212117803
9.85985985985986,0.00137974064590223,0.022713234493838,0.0222097073020783,0.0522470739887395
9.86986986986987,0.0013790406696436,0.0227011198328742,0.0221983802199713,0.0522197696407196
9.87987987987988,0.00137834175765051,0.0226890245362097,0.0221870704508423,0.0521925080558049
9.88988988988989,0.00137764390722879,0.0226769485523121,0.0221757779506325,0.0521652891224886
9.8998998998999,0.00137694711569381,0.0226648918298411,0.0221645026754401,0.0521381127296702
9.90990990990991,0.00137625138037043,0.0226528543176471,0.0221532445815191,0.052110978766654
9.91991991991992,0.00137555669859296,0.0226408359647707,0.0221420036252791,0.0520838871231472
9.92992992992993,0.00137486306770513,0.0226288367204413,0.0221307797632844,0.0520568376892581
9.93993993993994,0.00137417048506001,0.0226168565340765,0.0221195729522532,0.0520298303554938
9.94994994994995,0.00137347894802004,0.0226048953552812,0.022108383149057,0.0520028650127589
9.95995995995996,0.00137278845395689,0.0225929531338468,0.0220972103107197,0.0519759415523531
9.96996996996997,0.00137209900025152,0.0225810298197499,0.0220860543944173,0.0519490598659698
9.97997997997998,0.00137141058429404,0.0225691253631519,0.0220749153574769,0.0519222198456942
9.98998998998999,0.00137072320348376,0.022557239714398,0.0220637931573761,0.0518954213840011
10,0.00137003685522908,0.0225453728240159,0.0220526877517424,0.0518686643737537
